<?xml version="1.0" encoding="UTF-8" standalone="no"?>
<svg
   width="57.303719"
   height="52.487328"
   viewBox="0 0 15.16161 13.887272"
   version="1.1"
   id="svg8"
   inkscape:version="1.2.2 (b0a8486541, 2022-12-01)"
   sodipodi:docname="STC!CPlover_1013Sun30Jul23.svg"
   xmlns:inkscape="http://www.inkscape.org/namespaces/inkscape"
   xmlns:sodipodi="http://sodipodi.sourceforge.net/DTD/sodipodi-0.dtd"
   xmlns="http://www.w3.org/2000/svg"
   xmlns:svg="http://www.w3.org/2000/svg"
   xmlns:rdf="http://www.w3.org/1999/02/22-rdf-syntax-ns#"
   xmlns:cc="http://creativecommons.org/ns#"
   xmlns:dc="http://purl.org/dc/elements/1.1/">
  <defs
     id="defs2" />
  <sodipodi:namedview
     id="base"
     pagecolor="#505050"
     bordercolor="#666666"
     borderopacity="1.0"
     inkscape:pageopacity="0"
     inkscape:pageshadow="2"
     inkscape:zoom="7.7102274"
     inkscape:cx="36.899041"
     inkscape:cy="33.656595"
     inkscape:document-units="px"
     inkscape:current-layer="g1146"
     inkscape:document-rotation="0"
     showgrid="false"
     inkscape:pagecheckerboard="true"
     inkscape:window-width="1920"
     inkscape:window-height="1080"
     inkscape:window-x="1920"
     inkscape:window-y="0"
     inkscape:window-maximized="1"
     inkscape:snap-global="false"
     inkscape:showpageshadow="false"
     inkscape:deskcolor="#464646" />
  <metadata
     id="metadata5">
    <rdf:RDF>
      <cc:Work
         rdf:about="">
        <dc:format>image/svg+xml</dc:format>
        <dc:type
           rdf:resource="http://purl.org/dc/dcmitype/StillImage" />
      </cc:Work>
    </rdf:RDF>
  </metadata>
  <g
     inkscape:label="Plover"
     inkscape:groupmode="layer"
     id="layer1"
     transform="translate(-19.414288,-134.94394)">
    <g
       id="g1155"
       inkscape:label="Wing"
       inkscape:highlight-color="#6b6b6b"
       transform="rotate(-12.658236,32.098781,135.90282)">
      <path
         sodipodi:nodetypes="ccccscc"
         style="fill:#6b6b6b;fill-opacity:1;stroke:#000000;stroke-width:0.529167;stroke-miterlimit:4;stroke-dasharray:none;stroke-opacity:1"
         d="m 31.627588,137.94796 c 0.310002,0.87419 0.79955,1.80352 1.467299,2.78867 l -15.825578,4.6144 c 0.443149,-1.62264 0.962957,-3.00656 1.560098,-4.15108 0.977425,-2.13698 2.47218,-3.69018 4.311783,-4.65949 2.507102,-1.32102 5.566566,-1.62966 8.015679,-1.5197 0.0034,1.07794 0.160717,2.05368 0.470719,2.9272 z"
         id="use94-5"
         inkscape:label="Wing" />
      <path
         sodipodi:nodetypes="ccccc"
         id="path884-4"
         d="m 17.362538,145.17875 -0.07024,-0.40858 15.501671,-4.35892 0.234713,0.3008 z"
         style="display:inline;fill:#000000;fill-opacity:0.25;stroke:#000000;stroke-width:0;stroke-linecap:butt;stroke-linejoin:miter;stroke-miterlimit:4;stroke-dasharray:none;stroke-opacity:1"
         inkscape:label="Wing_Shadow" />
    </g>
  </g>
</svg>
