<?xml version="1.0" encoding="UTF-8" standalone="no"?>
<svg
   width="19.132214"
   height="14.65756"
   viewBox="0 0 5.0620654 3.8781461"
   version="1.1"
   id="svg8"
   inkscape:version="1.2.2 (b0a8486541, 2022-12-01)"
   sodipodi:docname="STC!CPlover_1013Sun30Jul23.svg"
   xmlns:inkscape="http://www.inkscape.org/namespaces/inkscape"
   xmlns:sodipodi="http://sodipodi.sourceforge.net/DTD/sodipodi-0.dtd"
   xmlns="http://www.w3.org/2000/svg"
   xmlns:svg="http://www.w3.org/2000/svg"
   xmlns:rdf="http://www.w3.org/1999/02/22-rdf-syntax-ns#"
   xmlns:cc="http://creativecommons.org/ns#"
   xmlns:dc="http://purl.org/dc/elements/1.1/">
  <defs
     id="defs2" />
  <sodipodi:namedview
     id="base"
     pagecolor="#505050"
     bordercolor="#666666"
     borderopacity="1.0"
     inkscape:pageopacity="0"
     inkscape:pageshadow="2"
     inkscape:zoom="7.7102274"
     inkscape:cx="36.899041"
     inkscape:cy="33.656595"
     inkscape:document-units="px"
     inkscape:current-layer="g1146"
     inkscape:document-rotation="0"
     showgrid="false"
     inkscape:pagecheckerboard="true"
     inkscape:window-width="1920"
     inkscape:window-height="1080"
     inkscape:window-x="1920"
     inkscape:window-y="0"
     inkscape:window-maximized="1"
     inkscape:snap-global="false"
     inkscape:showpageshadow="false"
     inkscape:deskcolor="#464646" />
  <metadata
     id="metadata5">
    <rdf:RDF>
      <cc:Work
         rdf:about="">
        <dc:format>image/svg+xml</dc:format>
        <dc:type
           rdf:resource="http://purl.org/dc/dcmitype/StillImage" />
      </cc:Work>
    </rdf:RDF>
  </metadata>
  <g
     inkscape:label="Plover"
     inkscape:groupmode="layer"
     id="layer1"
     transform="translate(-36.053126,-134.83331)">
    <g
       id="g1137"
       inkscape:label="Head"
       inkscape:highlight-color="#eeff00"
       transform="translate(-1.0098034,-0.7778514)">
      <g
         id="g2204"
         inkscape:label="TopBeak">
        <path
           id="use70-3"
           d="m 38.191062,136.09874 0.10317,0.0601 0.102593,0.0593 0.100504,0.0597 0.09926,0.0589 0.09735,0.0579 0.09593,0.0584 0.09469,0.0576 0.09278,0.0566 0.09135,0.0571 0.08945,0.0562 0.08878,0.0561 0.08687,0.0552 0.08487,0.0549 0.08354,0.0547 0.0823,0.0539 0.08096,0.0537 0.07896,0.0534 0.07772,0.0526 0.07572,0.0523 0.07439,0.0521 0.07315,0.0513 0.07115,0.051 0.06981,0.0508 0.06848,0.0506 0.06657,0.0497 0.06533,0.0489 0.0639,0.0493 0.062,0.0484 0.06066,0.0482 0.05942,0.0474 0.05742,0.0471 0.05609,0.0469 0.05485,0.0461 0.05285,0.0458 0.05151,0.0456 0.04951,0.0454 0.04827,0.0445 0.04703,0.0437 0.04494,0.0441 0.04436,0.0433 0.0417,0.043 0.04112,0.0422 0.03912,0.0419 0.03712,0.0417 0.03646,0.0416 0.03455,0.0406 0.03264,0.0397 0.03188,0.0403 0.02997,0.0393 0.02797,0.0391 0.0274,0.0383 0.02473,0.0379 0.02407,0.0379 0.02207,0.0376 0.02082,0.0368 0.01949,0.0366 0.01758,0.0356 0.01625,0.0354 0.01425,0.0352 0.01292,0.035 0.01167,0.0342 0.0097,0.0339 -4.288427,-1.94992 0.554244,-1.08412 0.107169,0.0606 z"
           style="display:inline;fill:#edff00;fill-opacity:1;stroke-width:0.529167;stroke-dasharray:none"
           inkscape:label="TopBeak_Fill" />
        <path
           id="use72-7"
           d="m 38.191062,136.09874 0.10317,0.0601 0.102593,0.0593 0.100504,0.0597 0.09926,0.0589 0.09735,0.0579 0.09593,0.0584 0.09469,0.0576 0.09278,0.0566 0.09135,0.0571 0.08945,0.0562 0.08878,0.0561 0.08687,0.0552 0.08487,0.0549 0.08354,0.0547 0.0823,0.0539 0.08096,0.0537 0.07896,0.0534 0.07772,0.0526 0.07572,0.0523 0.07439,0.0521 0.07315,0.0513 0.07115,0.051 0.06981,0.0508 0.06848,0.0506 0.06657,0.0497 0.06533,0.0489 0.0639,0.0493 0.062,0.0484 0.06066,0.0482 0.05942,0.0474 0.05742,0.0471 0.05609,0.0469 0.05485,0.0461 0.05285,0.0458 0.05151,0.0456 0.04951,0.0454 0.04827,0.0445 0.04703,0.0437 0.04494,0.0441 0.04436,0.0433 0.0417,0.043 0.04112,0.0422 0.03912,0.0419 0.03712,0.0417 0.03646,0.0416 0.03455,0.0406 0.03264,0.0397 0.03188,0.0403 0.02997,0.0393 0.02797,0.0391 0.0274,0.0383 0.02473,0.0379 0.02407,0.0379 0.02207,0.0376 0.02082,0.0368 0.01949,0.0366 0.01758,0.0356 0.01625,0.0354 0.01425,0.0352 0.01292,0.035 0.01167,0.0342 0.0097,0.0339 -4.288427,-1.94992 0.554244,-1.08412 0.107169,0.0606 z"
           style="display:inline;fill-opacity:0;stroke:#000000;stroke-width:0.529167;stroke-dasharray:none;stroke-opacity:1"
           inkscape:label="TopBeak_Outline" />
        <path
           id="use78-9"
           d="m 39.703383,137.5253 c 0.06612,0.0279 0.134004,0.0629 0.203079,0.10411 0.06907,0.0412 0.139337,0.0887 0.210699,0.14313"
           style="fill-opacity:0;stroke:#000000;stroke-width:0.132292;stroke-dasharray:none;stroke-opacity:1"
           inkscape:label="Nostril" />
      </g>
    </g>
  </g>
</svg>
