<?xml version="1.0" encoding="UTF-8" standalone="no"?>
<svg
   width="94"
   height="94"
   viewBox="0 0 24.870836 24.870833"
   version="1.1"
   id="svg8"
   inkscape:version="1.2.2 (b0a8486541, 2022-12-01)"
   sodipodi:docname="STC!CPlover_1013Sun30Jul23.svg"
   xmlns:inkscape="http://www.inkscape.org/namespaces/inkscape"
   xmlns:sodipodi="http://sodipodi.sourceforge.net/DTD/sodipodi-0.dtd"
   xmlns="http://www.w3.org/2000/svg"
   xmlns:svg="http://www.w3.org/2000/svg"
   xmlns:rdf="http://www.w3.org/1999/02/22-rdf-syntax-ns#"
   xmlns:cc="http://creativecommons.org/ns#"
   xmlns:dc="http://purl.org/dc/elements/1.1/">
  <defs
     id="defs2">
    <path
       d="m 461.5,170.56 -5.53,15.38 c 33.13,7.97 53.85,12.95 62.13,14.94 2.25,0.54 4.13,-1.75 3.16,-3.85 -0.61,-1.34 -2.16,-4.71 -4.63,-10.09 z"
       id="c4beH6J2J6" />
    <path
       d="m 360.62,283.23 c -1.22,-0.15 -2.34,0.72 -2.49,1.94 -2.09,17.06 -8.09,66.04 -10.18,83.1 -0.15,1.22 0.72,2.33 1.94,2.48 0.8,0.1 0.96,0.12 1.75,0.22 1.22,0.15 2.33,-0.72 2.48,-1.94 2.09,-17.07 8.09,-66.04 10.18,-83.1 0.15,-1.22 -0.72,-2.33 -1.94,-2.48 -0.79,-0.1 -0.95,-0.12 -1.74,-0.22 z"
       id="cdtOYzTe1" />
    <path
       d="m 349.85,367.59 c -1.38,0.45 -2.18,1.89 -1.83,3.29 4.67,19.23 18.07,74.43 22.74,93.66 0.33,1.34 1.73,2.12 3.04,1.69 0.71,-0.23 0.4,-0.13 1.11,-0.36 1.37,-0.45 2.17,-1.89 1.83,-3.29 -4.67,-19.23 -18.07,-74.43 -22.74,-93.66 -0.33,-1.34 -1.73,-2.12 -3.05,-1.69 -0.71,0.23 -0.39,0.13 -1.1,0.36 z"
       id="b11y1alkoU" />
    <path
       d="m 320.32,284.42 c -1.22,-0.15 -2.33,0.72 -2.48,1.94 -2.09,17.06 -8.09,66.04 -10.18,83.1 -0.15,1.22 0.72,2.33 1.94,2.48 0.79,0.1 0.95,0.12 1.74,0.22 1.22,0.15 2.34,-0.72 2.49,-1.94 2.09,-17.07 8.09,-66.04 10.18,-83.1 0.15,-1.22 -0.72,-2.34 -1.94,-2.49 -0.79,-0.09 -0.96,-0.11 -1.75,-0.21 z"
       id="bgJmZ51GL" />
    <path
       d="m 309.83,367.74 c -1.41,0.31 -2.36,1.65 -2.16,3.09 2.64,19.61 10.24,75.9 12.88,95.51 0.19,1.37 1.5,2.29 2.85,2 0.73,-0.16 0.41,-0.09 1.14,-0.24 1.42,-0.31 2.36,-1.65 2.16,-3.09 -2.64,-19.61 -10.24,-75.9 -12.88,-95.51 -0.19,-1.37 -1.5,-2.29 -2.85,-2 -0.73,0.15 -0.41,0.09 -1.14,0.24 z"
       id="bcN0AT4yr" />
    <path
       d="m 459.45,184.84 c -0.88,11.44 0.96,24.46 5.54,39.06 -16.87,-5.34 -29.59,-13.14 -38.17,-23.4 -8.58,-10.26 -13.02,-22.99 -13.32,-38.17 16.57,-25.83 29.59,-39.33 39.06,-40.52 9.47,-1.18 15.39,9.96 17.76,33.42 -6.36,8.29 -9.98,18.16 -10.87,29.61 z"
       id="b5UIeNOFP" />
    <path
       d="m 421.13,193.78 c 6.09,10.11 15.98,18.74 29.67,25.88 2.84,3.25 -1.22,9.66 -12.19,19.23 -8.38,7.31 -21.93,17.17 -40.67,29.59 -8.58,5.69 -17.97,10.05 -27.84,12.95 -7.91,2.32 -17.34,5.09 -25.4,7.46 -9.39,2.76 -19.06,4.52 -28.83,5.26 -25.64,1.93 -44.3,0.79 -55.98,-3.43 -22.14,-7.99 -37.17,-9.74 -63.58,-13.66 -17.6,-2.61 -37.84,-2.61 -60.72,0 l 106.43,-53.16 45.49,-34.72 c 16.79,-15.09 35.74,-25.15 56.87,-30.18 21.12,-5.03 44.41,-5.03 69.86,0 -1.5,13.08 0.8,24.67 6.89,34.78 z"
       id="d7Y9r2CDU3" />
    <path
       d="m 448.38,117.15 c -10.95,2.66 -24.56,17.68 -40.84,45.04 l -58.02,4.87 c 10.96,-14.51 22.9,-29.63 35.83,-45.33 19.4,-23.56 44.2,-39.86 70.55,-38.55 15.22,0.76 25.38,6.11 30.48,16.04 1.55,3.03 2.37,6.39 2.36,9.8 0,7.01 -1.02,13.29 -3.05,18.83 -2.58,7.07 -6.74,13.19 -12.46,18.36 -5.62,-22.04 -13.9,-31.72 -24.85,-29.06 z"
       id="a2QcWbC9JE" />
    <path
       d="m 451.68,137.25 c -1.72,0 -3.11,1.39 -3.11,3.11 0,6.57 0,23.17 0,29.73 0,1.72 1.39,3.11 3.11,3.11 0.62,0 -0.62,0 0,0 1.71,0 3.11,-1.39 3.11,-3.11 0,-6.56 0,-23.16 0,-29.73 0,-1.72 -1.4,-3.11 -3.11,-3.11 -0.62,0 0.62,0 0,0 z"
       id="d1nrmP5IDC" />
    <path
       d="m 471.14,159.01 1.64,0.68 1.63,0.67 1.6,0.68 1.58,0.67 1.55,0.66 1.53,0.67 1.51,0.66 1.48,0.65 1.46,0.66 1.43,0.65 1.42,0.65 1.39,0.64 1.36,0.64 1.34,0.64 1.32,0.63 1.3,0.63 1.27,0.63 1.25,0.62 1.22,0.62 1.2,0.62 1.18,0.61 1.15,0.61 1.13,0.61 1.11,0.61 1.08,0.6 1.06,0.59 1.04,0.6 1.01,0.59 0.99,0.59 0.97,0.58 0.94,0.58 0.92,0.58 0.9,0.57 0.87,0.57 0.85,0.57 0.82,0.57 0.8,0.56 0.78,0.55 0.75,0.56 0.74,0.55 0.7,0.55 0.69,0.54 0.66,0.54 0.63,0.54 0.62,0.54 0.59,0.53 0.56,0.52 0.55,0.53 0.52,0.52 0.49,0.52 0.48,0.51 0.44,0.51 0.43,0.51 0.4,0.51 0.38,0.5 0.36,0.5 0.33,0.49 0.31,0.49 0.28,0.49 0.26,0.49 0.24,0.48 0.21,0.48 -67.08,-20.2 6.01,-17.08 1.7,0.68 z"
       id="gAHRTEZ1S" />
    <path
       d="m 496.81,176.28 c 1.03,0.28 2.1,0.66 3.2,1.13 1.1,0.47 2.23,1.03 3.39,1.69"
       id="iCRv012mu" />
    <path
       d="m 395.19,459.17 0.36,0.11 0.34,0.16 0.31,0.21 0.28,0.25 0.25,0.29 0.21,0.32 0.15,0.35 0.11,0.39 0.05,0.39 v 0.39 l -0.06,0.38 -0.12,0.36 -0.16,0.34 -0.2,0.31 -0.25,0.28 -0.29,0.25 -0.32,0.2 -0.36,0.16 -0.38,0.11 -8.17,1.68 8.5,2.9 0.36,0.15 0.34,0.21 0.29,0.24 0.25,0.28 0.21,0.31 0.17,0.34 0.12,0.36 0.06,0.37 0.02,0.38 -0.05,0.39 -0.1,0.38 -0.15,0.37 -0.2,0.33 -0.25,0.29 -0.28,0.26 -0.31,0.21 -0.34,0.16 -0.35,0.12 -0.38,0.07 -0.38,0.01 -0.38,-0.04 -0.39,-0.1 -17.14,-5.86 -0.53,0.11 -0.39,0.05 -0.39,-0.01 -0.38,-0.06 -0.36,-0.11 -0.34,-0.16 -0.07,-0.05 -0.05,0.07 -0.24,0.28 -0.29,0.25 -0.32,0.2 -0.36,0.16 -0.38,0.11 -19.08,3.92 -0.4,0.05 -0.38,-0.01 -0.38,-0.06 -0.36,-0.11 -0.34,-0.16 -0.31,-0.21 -0.29,-0.25 -0.24,-0.28 -0.21,-0.33 -0.16,-0.35 -0.11,-0.38 -0.05,-0.4 0.01,-0.39 0.06,-0.37 0.11,-0.36 0.17,-0.34 0.2,-0.32 0.25,-0.28 0.29,-0.25 0.32,-0.2 0.35,-0.16 0.39,-0.11 19.08,-3.92 0.39,-0.05 0.39,0.01 0.38,0.06 0.36,0.11 0.34,0.16 0.07,0.05 0.04,-0.07 0.25,-0.28 0.29,-0.24 0.32,-0.21 0.07,-0.03 0.19,-0.18 0.32,-0.21 0.33,-0.16 0.36,-0.12 0.37,-0.07 0.38,-0.01 0.39,0.04 0.27,0.07 17.14,-3.52 0.39,-0.05 0.39,0.01 z"
       id="brKtBjalz" />
    <path
       d="m 342.51,459.78 0.36,0.11 0.34,0.16 0.31,0.21 0.28,0.25 0.25,0.28 0.2,0.33 0.16,0.35 0.11,0.38 0.05,0.4 v 0.39 l -0.07,0.37 -0.11,0.36 -0.16,0.34 -0.21,0.32 -0.25,0.28 -0.28,0.24 -0.32,0.21 -0.36,0.16 -0.38,0.11 -8.17,1.68 8.5,2.9 0.36,0.15 0.33,0.2 0.3,0.25 0.25,0.28 0.21,0.31 0.17,0.34 0.11,0.35 0.07,0.37 0.01,0.39 -0.04,0.38 -0.1,0.39 -0.15,0.36 -0.21,0.34 -0.24,0.29 -0.28,0.25 -0.31,0.21 -0.34,0.17 -0.36,0.12 -0.37,0.06 -0.38,0.02 -0.39,-0.05 -0.38,-0.1 -17.15,-5.85 -0.52,0.11 -0.4,0.05 -0.39,-0.01 -0.37,-0.06 -0.36,-0.11 -0.34,-0.16 -0.07,-0.05 -0.05,0.06 -0.25,0.29 -0.28,0.24 -0.33,0.21 -0.35,0.16 -0.38,0.11 -19.08,3.92 -0.4,0.05 -0.39,-0.01 -0.37,-0.06 -0.36,-0.11 -0.34,-0.17 -0.32,-0.2 -0.28,-0.25 -0.25,-0.29 -0.2,-0.32 -0.16,-0.35 -0.11,-0.39 -0.05,-0.39 0.01,-0.39 0.06,-0.38 0.11,-0.36 0.16,-0.34 0.21,-0.31 0.25,-0.28 0.28,-0.25 0.33,-0.2 0.35,-0.16 0.38,-0.11 19.08,-3.92 0.4,-0.05 h 0.39 l 0.37,0.07 0.37,0.11 0.33,0.16 0.08,0.05 0.04,-0.07 0.25,-0.28 0.29,-0.25 0.32,-0.2 0.07,-0.03 0.19,-0.18 0.31,-0.21 0.34,-0.16 0.36,-0.12 0.37,-0.07 0.38,-0.01 0.39,0.04 0.27,0.07 17.14,-3.52 0.39,-0.05 0.39,0.01 z"
       id="f4SJVp3kr" />
    <path
       d="m 367.99,199.43 c 4.61,13 11.89,26.82 21.82,41.47 l -235.34,68.62 c 6.59,-24.13 14.32,-44.71 23.2,-61.73 18.03,-34.55 38.07,-54.45 45.72,-59.85 34.61,-24.43 80.48,-35.11 137.6,-32.04 0.05,16.03 2.39,30.54 7,43.53 z"
       id="a2uTS3eTkx" />
    <path
       id="c4beH6J2J6-9"
       d="m 461.5,170.56 -5.53,15.38 c 33.13,7.97 53.85,12.95 62.13,14.94 2.25,0.54 4.13,-1.75 3.16,-3.85 -0.61,-1.34 -2.16,-4.71 -4.63,-10.09 z" />
    <path
       d="m 459.45,184.84 c -0.88,11.44 0.96,24.46 5.54,39.06 -16.87,-5.34 -29.59,-13.14 -38.17,-23.4 -8.58,-10.26 -13.02,-22.99 -13.32,-38.17 16.57,-25.83 29.59,-39.33 39.06,-40.52 9.47,-1.18 15.39,9.96 17.76,33.42 -6.36,8.29 -9.98,18.16 -10.87,29.61 z"
       id="b5UIeNOFP-9" />
    <path
       d="m 342.51,459.78 0.36,0.11 0.34,0.16 0.31,0.21 0.28,0.25 0.25,0.28 0.2,0.33 0.16,0.35 0.11,0.38 0.05,0.4 v 0.39 l -0.07,0.37 -0.11,0.36 -0.16,0.34 -0.21,0.32 -0.25,0.28 -0.28,0.24 -0.32,0.21 -0.36,0.16 -0.38,0.11 -8.17,1.68 8.5,2.9 0.36,0.15 0.33,0.2 0.3,0.25 0.25,0.28 0.21,0.31 0.17,0.34 0.11,0.35 0.07,0.37 0.01,0.39 -0.04,0.38 -0.1,0.39 -0.15,0.36 -0.21,0.34 -0.24,0.29 -0.28,0.25 -0.31,0.21 -0.34,0.17 -0.36,0.12 -0.37,0.06 -0.38,0.02 -0.39,-0.05 -0.38,-0.1 -17.15,-5.85 -0.52,0.11 -0.4,0.05 -0.39,-0.01 -0.37,-0.06 -0.36,-0.11 -0.34,-0.16 -0.07,-0.05 -0.05,0.06 -0.25,0.29 -0.28,0.24 -0.33,0.21 -0.35,0.16 -0.38,0.11 -19.08,3.92 -0.4,0.05 -0.39,-0.01 -0.37,-0.06 -0.36,-0.11 -0.34,-0.17 -0.32,-0.2 -0.28,-0.25 -0.25,-0.29 -0.2,-0.32 -0.16,-0.35 -0.11,-0.39 -0.05,-0.39 0.01,-0.39 0.06,-0.38 0.11,-0.36 0.16,-0.34 0.21,-0.31 0.25,-0.28 0.28,-0.25 0.33,-0.2 0.35,-0.16 0.38,-0.11 19.08,-3.92 0.4,-0.05 h 0.39 l 0.37,0.07 0.37,0.11 0.33,0.16 0.08,0.05 0.04,-0.07 0.25,-0.28 0.29,-0.25 0.32,-0.2 0.07,-0.03 0.19,-0.18 0.31,-0.21 0.34,-0.16 0.36,-0.12 0.37,-0.07 0.38,-0.01 0.39,0.04 0.27,0.07 17.14,-3.52 0.39,-0.05 0.39,0.01 z"
       id="c6df1960pP" />
    <path
       d="m 461.5,170.56 -5.53,15.38 c 33.13,7.97 53.85,12.95 62.13,14.94 2.25,0.54 4.13,-1.75 3.16,-3.85 -0.61,-1.34 -2.16,-4.71 -4.63,-10.09 z"
       id="c4beH6J2J6-1" />
    <path
       d="m 360.62,283.23 c -1.22,-0.15 -2.34,0.72 -2.49,1.94 -2.09,17.06 -8.09,66.04 -10.18,83.1 -0.15,1.22 0.72,2.33 1.94,2.48 0.8,0.1 0.96,0.12 1.75,0.22 1.22,0.15 2.33,-0.72 2.48,-1.94 2.09,-17.07 8.09,-66.04 10.18,-83.1 0.15,-1.22 -0.72,-2.33 -1.94,-2.48 -0.79,-0.1 -0.95,-0.12 -1.74,-0.22 z"
       id="cdtOYzTe1-4" />
    <path
       d="m 349.85,367.59 c -1.38,0.45 -2.18,1.89 -1.83,3.29 4.67,19.23 18.07,74.43 22.74,93.66 0.33,1.34 1.73,2.12 3.04,1.69 0.71,-0.23 0.4,-0.13 1.11,-0.36 1.37,-0.45 2.17,-1.89 1.83,-3.29 -4.67,-19.23 -18.07,-74.43 -22.74,-93.66 -0.33,-1.34 -1.73,-2.12 -3.05,-1.69 -0.71,0.23 -0.39,0.13 -1.1,0.36 z"
       id="b11y1alkoU-8" />
    <path
       d="m 320.32,284.42 c -1.22,-0.15 -2.33,0.72 -2.48,1.94 -2.09,17.06 -8.09,66.04 -10.18,83.1 -0.15,1.22 0.72,2.33 1.94,2.48 0.79,0.1 0.95,0.12 1.74,0.22 1.22,0.15 2.34,-0.72 2.49,-1.94 2.09,-17.07 8.09,-66.04 10.18,-83.1 0.15,-1.22 -0.72,-2.34 -1.94,-2.49 -0.79,-0.09 -0.96,-0.11 -1.75,-0.21 z"
       id="bgJmZ51GL-6" />
    <path
       d="m 309.83,367.74 c -1.41,0.31 -2.36,1.65 -2.16,3.09 2.64,19.61 10.24,75.9 12.88,95.51 0.19,1.37 1.5,2.29 2.85,2 0.73,-0.16 0.41,-0.09 1.14,-0.24 1.42,-0.31 2.36,-1.65 2.16,-3.09 -2.64,-19.61 -10.24,-75.9 -12.88,-95.51 -0.19,-1.37 -1.5,-2.29 -2.85,-2 -0.73,0.15 -0.41,0.09 -1.14,0.24 z"
       id="bcN0AT4yr-0" />
    <path
       d="m 459.45,184.84 c -0.88,11.44 0.96,24.46 5.54,39.06 -16.87,-5.34 -29.59,-13.14 -38.17,-23.4 -8.58,-10.26 -13.02,-22.99 -13.32,-38.17 16.57,-25.83 29.59,-39.33 39.06,-40.52 9.47,-1.18 15.39,9.96 17.76,33.42 -6.36,8.29 -9.98,18.16 -10.87,29.61 z"
       id="b5UIeNOFP-2" />
    <path
       d="m 421.13,193.78 c 6.09,10.11 15.98,18.74 29.67,25.88 2.84,3.25 -1.22,9.66 -12.19,19.23 -8.38,7.31 -21.93,17.17 -40.67,29.59 -8.58,5.69 -17.97,10.05 -27.84,12.95 -7.91,2.32 -17.34,5.09 -25.4,7.46 -9.39,2.76 -19.06,4.52 -28.83,5.26 -25.64,1.93 -44.3,0.79 -55.98,-3.43 -22.14,-7.99 -37.17,-9.74 -63.58,-13.66 -17.6,-2.61 -37.84,-2.61 -60.72,0 l 106.43,-53.16 45.49,-34.72 c 16.79,-15.09 35.74,-25.15 56.87,-30.18 21.12,-5.03 44.41,-5.03 69.86,0 -1.5,13.08 0.8,24.67 6.89,34.78 z"
       id="d7Y9r2CDU3-8" />
    <path
       d="m 451.68,137.25 c -1.72,0 -3.11,1.39 -3.11,3.11 0,6.57 0,23.17 0,29.73 0,1.72 1.39,3.11 3.11,3.11 0.62,0 -0.62,0 0,0 1.71,0 3.11,-1.39 3.11,-3.11 0,-6.56 0,-23.16 0,-29.73 0,-1.72 -1.4,-3.11 -3.11,-3.11 -0.62,0 0.62,0 0,0 z"
       id="d1nrmP5IDC-8" />
    <path
       d="m 471.14,159.01 1.64,0.68 1.63,0.67 1.6,0.68 1.58,0.67 1.55,0.66 1.53,0.67 1.51,0.66 1.48,0.65 1.46,0.66 1.43,0.65 1.42,0.65 1.39,0.64 1.36,0.64 1.34,0.64 1.32,0.63 1.3,0.63 1.27,0.63 1.25,0.62 1.22,0.62 1.2,0.62 1.18,0.61 1.15,0.61 1.13,0.61 1.11,0.61 1.08,0.6 1.06,0.59 1.04,0.6 1.01,0.59 0.99,0.59 0.97,0.58 0.94,0.58 0.92,0.58 0.9,0.57 0.87,0.57 0.85,0.57 0.82,0.57 0.8,0.56 0.78,0.55 0.75,0.56 0.74,0.55 0.7,0.55 0.69,0.54 0.66,0.54 0.63,0.54 0.62,0.54 0.59,0.53 0.56,0.52 0.55,0.53 0.52,0.52 0.49,0.52 0.48,0.51 0.44,0.51 0.43,0.51 0.4,0.51 0.38,0.5 0.36,0.5 0.33,0.49 0.31,0.49 0.28,0.49 0.26,0.49 0.24,0.48 0.21,0.48 -67.08,-20.2 6.01,-17.08 1.7,0.68 z"
       id="gAHRTEZ1S-8" />
    <path
       d="m 496.81,176.28 c 1.03,0.28 2.1,0.66 3.2,1.13 1.1,0.47 2.23,1.03 3.39,1.69"
       id="iCRv012mu-5" />
    <path
       d="m 395.19,459.17 0.36,0.11 0.34,0.16 0.31,0.21 0.28,0.25 0.25,0.29 0.21,0.32 0.15,0.35 0.11,0.39 0.05,0.39 v 0.39 l -0.06,0.38 -0.12,0.36 -0.16,0.34 -0.2,0.31 -0.25,0.28 -0.29,0.25 -0.32,0.2 -0.36,0.16 -0.38,0.11 -8.17,1.68 8.5,2.9 0.36,0.15 0.34,0.21 0.29,0.24 0.25,0.28 0.21,0.31 0.17,0.34 0.12,0.36 0.06,0.37 0.02,0.38 -0.05,0.39 -0.1,0.38 -0.15,0.37 -0.2,0.33 -0.25,0.29 -0.28,0.26 -0.31,0.21 -0.34,0.16 -0.35,0.12 -0.38,0.07 -0.38,0.01 -0.38,-0.04 -0.39,-0.1 -17.14,-5.86 -0.53,0.11 -0.39,0.05 -0.39,-0.01 -0.38,-0.06 -0.36,-0.11 -0.34,-0.16 -0.07,-0.05 -0.05,0.07 -0.24,0.28 -0.29,0.25 -0.32,0.2 -0.36,0.16 -0.38,0.11 -19.08,3.92 -0.4,0.05 -0.38,-0.01 -0.38,-0.06 -0.36,-0.11 -0.34,-0.16 -0.31,-0.21 -0.29,-0.25 -0.24,-0.28 -0.21,-0.33 -0.16,-0.35 -0.11,-0.38 -0.05,-0.4 0.01,-0.39 0.06,-0.37 0.11,-0.36 0.17,-0.34 0.2,-0.32 0.25,-0.28 0.29,-0.25 0.32,-0.2 0.35,-0.16 0.39,-0.11 19.08,-3.92 0.39,-0.05 0.39,0.01 0.38,0.06 0.36,0.11 0.34,0.16 0.07,0.05 0.04,-0.07 0.25,-0.28 0.29,-0.24 0.32,-0.21 0.07,-0.03 0.19,-0.18 0.32,-0.21 0.33,-0.16 0.36,-0.12 0.37,-0.07 0.38,-0.01 0.39,0.04 0.27,0.07 17.14,-3.52 0.39,-0.05 0.39,0.01 z"
       id="brKtBjalz-0" />
    <path
       d="m 342.51,459.78 0.36,0.11 0.34,0.16 0.31,0.21 0.28,0.25 0.25,0.28 0.2,0.33 0.16,0.35 0.11,0.38 0.05,0.4 v 0.39 l -0.07,0.37 -0.11,0.36 -0.16,0.34 -0.21,0.32 -0.25,0.28 -0.28,0.24 -0.32,0.21 -0.36,0.16 -0.38,0.11 -8.17,1.68 8.5,2.9 0.36,0.15 0.33,0.2 0.3,0.25 0.25,0.28 0.21,0.31 0.17,0.34 0.11,0.35 0.07,0.37 0.01,0.39 -0.04,0.38 -0.1,0.39 -0.15,0.36 -0.21,0.34 -0.24,0.29 -0.28,0.25 -0.31,0.21 -0.34,0.17 -0.36,0.12 -0.37,0.06 -0.38,0.02 -0.39,-0.05 -0.38,-0.1 -17.15,-5.85 -0.52,0.11 -0.4,0.05 -0.39,-0.01 -0.37,-0.06 -0.36,-0.11 -0.34,-0.16 -0.07,-0.05 -0.05,0.06 -0.25,0.29 -0.28,0.24 -0.33,0.21 -0.35,0.16 -0.38,0.11 -19.08,3.92 -0.4,0.05 -0.39,-0.01 -0.37,-0.06 -0.36,-0.11 -0.34,-0.17 -0.32,-0.2 -0.28,-0.25 -0.25,-0.29 -0.2,-0.32 -0.16,-0.35 -0.11,-0.39 -0.05,-0.39 0.01,-0.39 0.06,-0.38 0.11,-0.36 0.16,-0.34 0.21,-0.31 0.25,-0.28 0.28,-0.25 0.33,-0.2 0.35,-0.16 0.38,-0.11 19.08,-3.92 0.4,-0.05 h 0.39 l 0.37,0.07 0.37,0.11 0.33,0.16 0.08,0.05 0.04,-0.07 0.25,-0.28 0.29,-0.25 0.32,-0.2 0.07,-0.03 0.19,-0.18 0.31,-0.21 0.34,-0.16 0.36,-0.12 0.37,-0.07 0.38,-0.01 0.39,0.04 0.27,0.07 17.14,-3.52 0.39,-0.05 0.39,0.01 z"
       id="f4SJVp3kr-2" />
    <path
       d="m 367.99,199.43 c 4.61,13 11.89,26.82 21.82,41.47 l -235.34,68.62 c 6.59,-24.13 14.32,-44.71 23.2,-61.73 18.03,-34.55 38.07,-54.45 45.72,-59.85 34.61,-24.43 80.48,-35.11 137.6,-32.04 0.05,16.03 2.39,30.54 7,43.53 z"
       id="a2uTS3eTkx-4" />
    <path
       d="m 309.83,367.74 c -1.41,0.31 -2.36,1.65 -2.16,3.09 2.64,19.61 10.24,75.9 12.88,95.51 0.19,1.37 1.5,2.29 2.85,2 0.73,-0.16 0.41,-0.09 1.14,-0.24 1.42,-0.31 2.36,-1.65 2.16,-3.09 -2.64,-19.61 -10.24,-75.9 -12.88,-95.51 -0.19,-1.37 -1.5,-2.29 -2.85,-2 -0.73,0.15 -0.41,0.09 -1.14,0.24 z"
       id="a4QPbMcuZw" />
    <path
       id="c4beH6J2J6-5"
       d="m 461.5,170.56 -5.53,15.38 c 33.13,7.97 53.85,12.95 62.13,14.94 2.25,0.54 4.13,-1.75 3.16,-3.85 -0.61,-1.34 -2.16,-4.71 -4.63,-10.09 z" />
    <path
       id="cdtOYzTe1-7"
       d="m 360.62,283.23 c -1.22,-0.15 -2.34,0.72 -2.49,1.94 -2.09,17.06 -8.09,66.04 -10.18,83.1 -0.15,1.22 0.72,2.33 1.94,2.48 0.8,0.1 0.96,0.12 1.75,0.22 1.22,0.15 2.33,-0.72 2.48,-1.94 2.09,-17.07 8.09,-66.04 10.18,-83.1 0.15,-1.22 -0.72,-2.33 -1.94,-2.48 -0.79,-0.1 -0.95,-0.12 -1.74,-0.22 z" />
    <path
       id="b11y1alkoU-0"
       d="m 349.85,367.59 c -1.38,0.45 -2.18,1.89 -1.83,3.29 4.67,19.23 18.07,74.43 22.74,93.66 0.33,1.34 1.73,2.12 3.04,1.69 0.71,-0.23 0.4,-0.13 1.11,-0.36 1.37,-0.45 2.17,-1.89 1.83,-3.29 -4.67,-19.23 -18.07,-74.43 -22.74,-93.66 -0.33,-1.34 -1.73,-2.12 -3.05,-1.69 -0.71,0.23 -0.39,0.13 -1.1,0.36 z" />
    <path
       id="bgJmZ51GL-1"
       d="m 320.32,284.42 c -1.22,-0.15 -2.33,0.72 -2.48,1.94 -2.09,17.06 -8.09,66.04 -10.18,83.1 -0.15,1.22 0.72,2.33 1.94,2.48 0.79,0.1 0.95,0.12 1.74,0.22 1.22,0.15 2.34,-0.72 2.49,-1.94 2.09,-17.07 8.09,-66.04 10.18,-83.1 0.15,-1.22 -0.72,-2.34 -1.94,-2.49 -0.79,-0.09 -0.96,-0.11 -1.75,-0.21 z" />
    <path
       id="bcN0AT4yr-4"
       d="m 309.83,367.74 c -1.41,0.31 -2.36,1.65 -2.16,3.09 2.64,19.61 10.24,75.9 12.88,95.51 0.19,1.37 1.5,2.29 2.85,2 0.73,-0.16 0.41,-0.09 1.14,-0.24 1.42,-0.31 2.36,-1.65 2.16,-3.09 -2.64,-19.61 -10.24,-75.9 -12.88,-95.51 -0.19,-1.37 -1.5,-2.29 -2.85,-2 -0.73,0.15 -0.41,0.09 -1.14,0.24 z" />
    <path
       id="b5UIeNOFP-7"
       d="m 459.45,184.84 c -0.88,11.44 0.96,24.46 5.54,39.06 -16.87,-5.34 -29.59,-13.14 -38.17,-23.4 -8.58,-10.26 -13.02,-22.99 -13.32,-38.17 16.57,-25.83 29.59,-39.33 39.06,-40.52 9.47,-1.18 15.39,9.96 17.76,33.42 -6.36,8.29 -9.98,18.16 -10.87,29.61 z" />
    <path
       id="d7Y9r2CDU3-7"
       d="m 421.13,193.78 c 6.09,10.11 15.98,18.74 29.67,25.88 2.84,3.25 -1.22,9.66 -12.19,19.23 -8.38,7.31 -21.93,17.17 -40.67,29.59 -8.58,5.69 -17.97,10.05 -27.84,12.95 -7.91,2.32 -17.34,5.09 -25.4,7.46 -9.39,2.76 -19.06,4.52 -28.83,5.26 -25.64,1.93 -44.3,0.79 -55.98,-3.43 -22.14,-7.99 -37.17,-9.74 -63.58,-13.66 -17.6,-2.61 -37.84,-2.61 -60.72,0 l 106.43,-53.16 45.49,-34.72 c 16.79,-15.09 35.74,-25.15 56.87,-30.18 21.12,-5.03 44.41,-5.03 69.86,0 -1.5,13.08 0.8,24.67 6.89,34.78 z" />
    <path
       id="a2QcWbC9JE-6"
       d="m 448.38,117.15 c -10.95,2.66 -24.56,17.68 -40.84,45.04 l -58.02,4.87 c 10.96,-14.51 22.9,-29.63 35.83,-45.33 19.4,-23.56 44.2,-39.86 70.55,-38.55 15.22,0.76 25.38,6.11 30.48,16.04 1.55,3.03 2.37,6.39 2.36,9.8 0,7.01 -1.02,13.29 -3.05,18.83 -2.58,7.07 -6.74,13.19 -12.46,18.36 -5.62,-22.04 -13.9,-31.72 -24.85,-29.06 z" />
    <path
       id="d1nrmP5IDC-88"
       d="m 451.68,137.25 c -1.72,0 -3.11,1.39 -3.11,3.11 0,6.57 0,23.17 0,29.73 0,1.72 1.39,3.11 3.11,3.11 0.62,0 -0.62,0 0,0 1.71,0 3.11,-1.39 3.11,-3.11 0,-6.56 0,-23.16 0,-29.73 0,-1.72 -1.4,-3.11 -3.11,-3.11 -0.62,0 0.62,0 0,0 z" />
    <path
       id="gAHRTEZ1S-5"
       d="m 471.14,159.01 1.64,0.68 1.63,0.67 1.6,0.68 1.58,0.67 1.55,0.66 1.53,0.67 1.51,0.66 1.48,0.65 1.46,0.66 1.43,0.65 1.42,0.65 1.39,0.64 1.36,0.64 1.34,0.64 1.32,0.63 1.3,0.63 1.27,0.63 1.25,0.62 1.22,0.62 1.2,0.62 1.18,0.61 1.15,0.61 1.13,0.61 1.11,0.61 1.08,0.6 1.06,0.59 1.04,0.6 1.01,0.59 0.99,0.59 0.97,0.58 0.94,0.58 0.92,0.58 0.9,0.57 0.87,0.57 0.85,0.57 0.82,0.57 0.8,0.56 0.78,0.55 0.75,0.56 0.74,0.55 0.7,0.55 0.69,0.54 0.66,0.54 0.63,0.54 0.62,0.54 0.59,0.53 0.56,0.52 0.55,0.53 0.52,0.52 0.49,0.52 0.48,0.51 0.44,0.51 0.43,0.51 0.4,0.51 0.38,0.5 0.36,0.5 0.33,0.49 0.31,0.49 0.28,0.49 0.26,0.49 0.24,0.48 0.21,0.48 -67.08,-20.2 6.01,-17.08 1.7,0.68 z" />
    <path
       id="iCRv012mu-0"
       d="m 496.81,176.28 c 1.03,0.28 2.1,0.66 3.2,1.13 1.1,0.47 2.23,1.03 3.39,1.69" />
    <path
       id="brKtBjalz-3"
       d="m 395.19,459.17 0.36,0.11 0.34,0.16 0.31,0.21 0.28,0.25 0.25,0.29 0.21,0.32 0.15,0.35 0.11,0.39 0.05,0.39 v 0.39 l -0.06,0.38 -0.12,0.36 -0.16,0.34 -0.2,0.31 -0.25,0.28 -0.29,0.25 -0.32,0.2 -0.36,0.16 -0.38,0.11 -8.17,1.68 8.5,2.9 0.36,0.15 0.34,0.21 0.29,0.24 0.25,0.28 0.21,0.31 0.17,0.34 0.12,0.36 0.06,0.37 0.02,0.38 -0.05,0.39 -0.1,0.38 -0.15,0.37 -0.2,0.33 -0.25,0.29 -0.28,0.26 -0.31,0.21 -0.34,0.16 -0.35,0.12 -0.38,0.07 -0.38,0.01 -0.38,-0.04 -0.39,-0.1 -17.14,-5.86 -0.53,0.11 -0.39,0.05 -0.39,-0.01 -0.38,-0.06 -0.36,-0.11 -0.34,-0.16 -0.07,-0.05 -0.05,0.07 -0.24,0.28 -0.29,0.25 -0.32,0.2 -0.36,0.16 -0.38,0.11 -19.08,3.92 -0.4,0.05 -0.38,-0.01 -0.38,-0.06 -0.36,-0.11 -0.34,-0.16 -0.31,-0.21 -0.29,-0.25 -0.24,-0.28 -0.21,-0.33 -0.16,-0.35 -0.11,-0.38 -0.05,-0.4 0.01,-0.39 0.06,-0.37 0.11,-0.36 0.17,-0.34 0.2,-0.32 0.25,-0.28 0.29,-0.25 0.32,-0.2 0.35,-0.16 0.39,-0.11 19.08,-3.92 0.39,-0.05 0.39,0.01 0.38,0.06 0.36,0.11 0.34,0.16 0.07,0.05 0.04,-0.07 0.25,-0.28 0.29,-0.24 0.32,-0.21 0.07,-0.03 0.19,-0.18 0.32,-0.21 0.33,-0.16 0.36,-0.12 0.37,-0.07 0.38,-0.01 0.39,0.04 0.27,0.07 17.14,-3.52 0.39,-0.05 0.39,0.01 z" />
    <path
       id="f4SJVp3kr-4"
       d="m 342.51,459.78 0.36,0.11 0.34,0.16 0.31,0.21 0.28,0.25 0.25,0.28 0.2,0.33 0.16,0.35 0.11,0.38 0.05,0.4 v 0.39 l -0.07,0.37 -0.11,0.36 -0.16,0.34 -0.21,0.32 -0.25,0.28 -0.28,0.24 -0.32,0.21 -0.36,0.16 -0.38,0.11 -8.17,1.68 8.5,2.9 0.36,0.15 0.33,0.2 0.3,0.25 0.25,0.28 0.21,0.31 0.17,0.34 0.11,0.35 0.07,0.37 0.01,0.39 -0.04,0.38 -0.1,0.39 -0.15,0.36 -0.21,0.34 -0.24,0.29 -0.28,0.25 -0.31,0.21 -0.34,0.17 -0.36,0.12 -0.37,0.06 -0.38,0.02 -0.39,-0.05 -0.38,-0.1 -17.15,-5.85 -0.52,0.11 -0.4,0.05 -0.39,-0.01 -0.37,-0.06 -0.36,-0.11 -0.34,-0.16 -0.07,-0.05 -0.05,0.06 -0.25,0.29 -0.28,0.24 -0.33,0.21 -0.35,0.16 -0.38,0.11 -19.08,3.92 -0.4,0.05 -0.39,-0.01 -0.37,-0.06 -0.36,-0.11 -0.34,-0.17 -0.32,-0.2 -0.28,-0.25 -0.25,-0.29 -0.2,-0.32 -0.16,-0.35 -0.11,-0.39 -0.05,-0.39 0.01,-0.39 0.06,-0.38 0.11,-0.36 0.16,-0.34 0.21,-0.31 0.25,-0.28 0.28,-0.25 0.33,-0.2 0.35,-0.16 0.38,-0.11 19.08,-3.92 0.4,-0.05 h 0.39 l 0.37,0.07 0.37,0.11 0.33,0.16 0.08,0.05 0.04,-0.07 0.25,-0.28 0.29,-0.25 0.32,-0.2 0.07,-0.03 0.19,-0.18 0.31,-0.21 0.34,-0.16 0.36,-0.12 0.37,-0.07 0.38,-0.01 0.39,0.04 0.27,0.07 17.14,-3.52 0.39,-0.05 0.39,0.01 z" />
    <path
       id="a2uTS3eTkx-46"
       d="m 367.99,199.43 c 4.61,13 11.89,26.82 21.82,41.47 l -235.34,68.62 c 6.59,-24.13 14.32,-44.71 23.2,-61.73 18.03,-34.55 38.07,-54.45 45.72,-59.85 34.61,-24.43 80.48,-35.11 137.6,-32.04 0.05,16.03 2.39,30.54 7,43.53 z" />
    <path
       d="m 320.32,284.42 c -1.22,-0.15 -2.33,0.72 -2.48,1.94 -2.09,17.06 -8.09,66.04 -10.18,83.1 -0.15,1.22 0.72,2.33 1.94,2.48 0.79,0.1 0.95,0.12 1.74,0.22 1.22,0.15 2.34,-0.72 2.49,-1.94 2.09,-17.07 8.09,-66.04 10.18,-83.1 0.15,-1.22 -0.72,-2.34 -1.94,-2.49 -0.79,-0.09 -0.96,-0.11 -1.75,-0.21 z"
       id="e1qngIxJOE" />
    <path
       id="c4beH6J2J6-11"
       d="m 461.5,170.56 -5.53,15.38 c 33.13,7.97 53.85,12.95 62.13,14.94 2.25,0.54 4.13,-1.75 3.16,-3.85 -0.61,-1.34 -2.16,-4.71 -4.63,-10.09 z" />
    <path
       id="cdtOYzTe1-5"
       d="m 360.62,283.23 c -1.22,-0.15 -2.34,0.72 -2.49,1.94 -2.09,17.06 -8.09,66.04 -10.18,83.1 -0.15,1.22 0.72,2.33 1.94,2.48 0.8,0.1 0.96,0.12 1.75,0.22 1.22,0.15 2.33,-0.72 2.48,-1.94 2.09,-17.07 8.09,-66.04 10.18,-83.1 0.15,-1.22 -0.72,-2.33 -1.94,-2.48 -0.79,-0.1 -0.95,-0.12 -1.74,-0.22 z" />
    <path
       id="b11y1alkoU-5"
       d="m 349.85,367.59 c -1.38,0.45 -2.18,1.89 -1.83,3.29 4.67,19.23 18.07,74.43 22.74,93.66 0.33,1.34 1.73,2.12 3.04,1.69 0.71,-0.23 0.4,-0.13 1.11,-0.36 1.37,-0.45 2.17,-1.89 1.83,-3.29 -4.67,-19.23 -18.07,-74.43 -22.74,-93.66 -0.33,-1.34 -1.73,-2.12 -3.05,-1.69 -0.71,0.23 -0.39,0.13 -1.1,0.36 z" />
    <path
       id="bgJmZ51GL-16"
       d="m 320.32,284.42 c -1.22,-0.15 -2.33,0.72 -2.48,1.94 -2.09,17.06 -8.09,66.04 -10.18,83.1 -0.15,1.22 0.72,2.33 1.94,2.48 0.79,0.1 0.95,0.12 1.74,0.22 1.22,0.15 2.34,-0.72 2.49,-1.94 2.09,-17.07 8.09,-66.04 10.18,-83.1 0.15,-1.22 -0.72,-2.34 -1.94,-2.49 -0.79,-0.09 -0.96,-0.11 -1.75,-0.21 z" />
    <path
       id="bcN0AT4yr-46"
       d="m 309.83,367.74 c -1.41,0.31 -2.36,1.65 -2.16,3.09 2.64,19.61 10.24,75.9 12.88,95.51 0.19,1.37 1.5,2.29 2.85,2 0.73,-0.16 0.41,-0.09 1.14,-0.24 1.42,-0.31 2.36,-1.65 2.16,-3.09 -2.64,-19.61 -10.24,-75.9 -12.88,-95.51 -0.19,-1.37 -1.5,-2.29 -2.85,-2 -0.73,0.15 -0.41,0.09 -1.14,0.24 z" />
    <path
       id="b5UIeNOFP-1"
       d="m 459.45,184.84 c -0.88,11.44 0.96,24.46 5.54,39.06 -16.87,-5.34 -29.59,-13.14 -38.17,-23.4 -8.58,-10.26 -13.02,-22.99 -13.32,-38.17 16.57,-25.83 29.59,-39.33 39.06,-40.52 9.47,-1.18 15.39,9.96 17.76,33.42 -6.36,8.29 -9.98,18.16 -10.87,29.61 z" />
    <path
       id="d7Y9r2CDU3-2"
       d="m 421.13,193.78 c 6.09,10.11 15.98,18.74 29.67,25.88 2.84,3.25 -1.22,9.66 -12.19,19.23 -8.38,7.31 -21.93,17.17 -40.67,29.59 -8.58,5.69 -17.97,10.05 -27.84,12.95 -7.91,2.32 -17.34,5.09 -25.4,7.46 -9.39,2.76 -19.06,4.52 -28.83,5.26 -25.64,1.93 -44.3,0.79 -55.98,-3.43 -22.14,-7.99 -37.17,-9.74 -63.58,-13.66 -17.6,-2.61 -37.84,-2.61 -60.72,0 l 106.43,-53.16 45.49,-34.72 c 16.79,-15.09 35.74,-25.15 56.87,-30.18 21.12,-5.03 44.41,-5.03 69.86,0 -1.5,13.08 0.8,24.67 6.89,34.78 z" />
    <path
       id="a2QcWbC9JE-3"
       d="m 448.38,117.15 c -10.95,2.66 -24.56,17.68 -40.84,45.04 l -58.02,4.87 c 10.96,-14.51 22.9,-29.63 35.83,-45.33 19.4,-23.56 44.2,-39.86 70.55,-38.55 15.22,0.76 25.38,6.11 30.48,16.04 1.55,3.03 2.37,6.39 2.36,9.8 0,7.01 -1.02,13.29 -3.05,18.83 -2.58,7.07 -6.74,13.19 -12.46,18.36 -5.62,-22.04 -13.9,-31.72 -24.85,-29.06 z" />
    <path
       id="d1nrmP5IDC-3"
       d="m 451.68,137.25 c -1.72,0 -3.11,1.39 -3.11,3.11 0,6.57 0,23.17 0,29.73 0,1.72 1.39,3.11 3.11,3.11 0.62,0 -0.62,0 0,0 1.71,0 3.11,-1.39 3.11,-3.11 0,-6.56 0,-23.16 0,-29.73 0,-1.72 -1.4,-3.11 -3.11,-3.11 -0.62,0 0.62,0 0,0 z" />
    <path
       id="gAHRTEZ1S-7"
       d="m 471.14,159.01 1.64,0.68 1.63,0.67 1.6,0.68 1.58,0.67 1.55,0.66 1.53,0.67 1.51,0.66 1.48,0.65 1.46,0.66 1.43,0.65 1.42,0.65 1.39,0.64 1.36,0.64 1.34,0.64 1.32,0.63 1.3,0.63 1.27,0.63 1.25,0.62 1.22,0.62 1.2,0.62 1.18,0.61 1.15,0.61 1.13,0.61 1.11,0.61 1.08,0.6 1.06,0.59 1.04,0.6 1.01,0.59 0.99,0.59 0.97,0.58 0.94,0.58 0.92,0.58 0.9,0.57 0.87,0.57 0.85,0.57 0.82,0.57 0.8,0.56 0.78,0.55 0.75,0.56 0.74,0.55 0.7,0.55 0.69,0.54 0.66,0.54 0.63,0.54 0.62,0.54 0.59,0.53 0.56,0.52 0.55,0.53 0.52,0.52 0.49,0.52 0.48,0.51 0.44,0.51 0.43,0.51 0.4,0.51 0.38,0.5 0.36,0.5 0.33,0.49 0.31,0.49 0.28,0.49 0.26,0.49 0.24,0.48 0.21,0.48 -67.08,-20.2 6.01,-17.08 1.7,0.68 z" />
    <path
       id="iCRv012mu-52"
       d="m 496.81,176.28 c 1.03,0.28 2.1,0.66 3.2,1.13 1.1,0.47 2.23,1.03 3.39,1.69" />
    <path
       id="brKtBjalz-2"
       d="m 395.19,459.17 0.36,0.11 0.34,0.16 0.31,0.21 0.28,0.25 0.25,0.29 0.21,0.32 0.15,0.35 0.11,0.39 0.05,0.39 v 0.39 l -0.06,0.38 -0.12,0.36 -0.16,0.34 -0.2,0.31 -0.25,0.28 -0.29,0.25 -0.32,0.2 -0.36,0.16 -0.38,0.11 -8.17,1.68 8.5,2.9 0.36,0.15 0.34,0.21 0.29,0.24 0.25,0.28 0.21,0.31 0.17,0.34 0.12,0.36 0.06,0.37 0.02,0.38 -0.05,0.39 -0.1,0.38 -0.15,0.37 -0.2,0.33 -0.25,0.29 -0.28,0.26 -0.31,0.21 -0.34,0.16 -0.35,0.12 -0.38,0.07 -0.38,0.01 -0.38,-0.04 -0.39,-0.1 -17.14,-5.86 -0.53,0.11 -0.39,0.05 -0.39,-0.01 -0.38,-0.06 -0.36,-0.11 -0.34,-0.16 -0.07,-0.05 -0.05,0.07 -0.24,0.28 -0.29,0.25 -0.32,0.2 -0.36,0.16 -0.38,0.11 -19.08,3.92 -0.4,0.05 -0.38,-0.01 -0.38,-0.06 -0.36,-0.11 -0.34,-0.16 -0.31,-0.21 -0.29,-0.25 -0.24,-0.28 -0.21,-0.33 -0.16,-0.35 -0.11,-0.38 -0.05,-0.4 0.01,-0.39 0.06,-0.37 0.11,-0.36 0.17,-0.34 0.2,-0.32 0.25,-0.28 0.29,-0.25 0.32,-0.2 0.35,-0.16 0.39,-0.11 19.08,-3.92 0.39,-0.05 0.39,0.01 0.38,0.06 0.36,0.11 0.34,0.16 0.07,0.05 0.04,-0.07 0.25,-0.28 0.29,-0.24 0.32,-0.21 0.07,-0.03 0.19,-0.18 0.32,-0.21 0.33,-0.16 0.36,-0.12 0.37,-0.07 0.38,-0.01 0.39,0.04 0.27,0.07 17.14,-3.52 0.39,-0.05 0.39,0.01 z" />
    <path
       id="f4SJVp3kr-28"
       d="m 342.51,459.78 0.36,0.11 0.34,0.16 0.31,0.21 0.28,0.25 0.25,0.28 0.2,0.33 0.16,0.35 0.11,0.38 0.05,0.4 v 0.39 l -0.07,0.37 -0.11,0.36 -0.16,0.34 -0.21,0.32 -0.25,0.28 -0.28,0.24 -0.32,0.21 -0.36,0.16 -0.38,0.11 -8.17,1.68 8.5,2.9 0.36,0.15 0.33,0.2 0.3,0.25 0.25,0.28 0.21,0.31 0.17,0.34 0.11,0.35 0.07,0.37 0.01,0.39 -0.04,0.38 -0.1,0.39 -0.15,0.36 -0.21,0.34 -0.24,0.29 -0.28,0.25 -0.31,0.21 -0.34,0.17 -0.36,0.12 -0.37,0.06 -0.38,0.02 -0.39,-0.05 -0.38,-0.1 -17.15,-5.85 -0.52,0.11 -0.4,0.05 -0.39,-0.01 -0.37,-0.06 -0.36,-0.11 -0.34,-0.16 -0.07,-0.05 -0.05,0.06 -0.25,0.29 -0.28,0.24 -0.33,0.21 -0.35,0.16 -0.38,0.11 -19.08,3.92 -0.4,0.05 -0.39,-0.01 -0.37,-0.06 -0.36,-0.11 -0.34,-0.17 -0.32,-0.2 -0.28,-0.25 -0.25,-0.29 -0.2,-0.32 -0.16,-0.35 -0.11,-0.39 -0.05,-0.39 0.01,-0.39 0.06,-0.38 0.11,-0.36 0.16,-0.34 0.21,-0.31 0.25,-0.28 0.28,-0.25 0.33,-0.2 0.35,-0.16 0.38,-0.11 19.08,-3.92 0.4,-0.05 h 0.39 l 0.37,0.07 0.37,0.11 0.33,0.16 0.08,0.05 0.04,-0.07 0.25,-0.28 0.29,-0.25 0.32,-0.2 0.07,-0.03 0.19,-0.18 0.31,-0.21 0.34,-0.16 0.36,-0.12 0.37,-0.07 0.38,-0.01 0.39,0.04 0.27,0.07 17.14,-3.52 0.39,-0.05 0.39,0.01 z" />
    <path
       id="a2uTS3eTkx-2"
       d="m 367.99,199.43 c 4.61,13 11.89,26.82 21.82,41.47 l -235.34,68.62 c 6.59,-24.13 14.32,-44.71 23.2,-61.73 18.03,-34.55 38.07,-54.45 45.72,-59.85 34.61,-24.43 80.48,-35.11 137.6,-32.04 0.05,16.03 2.39,30.54 7,43.53 z" />
    <path
       id="c4beH6J2J6-55"
       d="m 461.5,170.56 -5.53,15.38 c 33.13,7.97 53.85,12.95 62.13,14.94 2.25,0.54 4.13,-1.75 3.16,-3.85 -0.61,-1.34 -2.16,-4.71 -4.63,-10.09 z" />
    <path
       id="cdtOYzTe1-0"
       d="m 360.62,283.23 c -1.22,-0.15 -2.34,0.72 -2.49,1.94 -2.09,17.06 -8.09,66.04 -10.18,83.1 -0.15,1.22 0.72,2.33 1.94,2.48 0.8,0.1 0.96,0.12 1.75,0.22 1.22,0.15 2.33,-0.72 2.48,-1.94 2.09,-17.07 8.09,-66.04 10.18,-83.1 0.15,-1.22 -0.72,-2.33 -1.94,-2.48 -0.79,-0.1 -0.95,-0.12 -1.74,-0.22 z" />
    <path
       id="b11y1alkoU-2"
       d="m 349.85,367.59 c -1.38,0.45 -2.18,1.89 -1.83,3.29 4.67,19.23 18.07,74.43 22.74,93.66 0.33,1.34 1.73,2.12 3.04,1.69 0.71,-0.23 0.4,-0.13 1.11,-0.36 1.37,-0.45 2.17,-1.89 1.83,-3.29 -4.67,-19.23 -18.07,-74.43 -22.74,-93.66 -0.33,-1.34 -1.73,-2.12 -3.05,-1.69 -0.71,0.23 -0.39,0.13 -1.1,0.36 z" />
    <path
       id="bgJmZ51GL-7"
       d="m 320.32,284.42 c -1.22,-0.15 -2.33,0.72 -2.48,1.94 -2.09,17.06 -8.09,66.04 -10.18,83.1 -0.15,1.22 0.72,2.33 1.94,2.48 0.79,0.1 0.95,0.12 1.74,0.22 1.22,0.15 2.34,-0.72 2.49,-1.94 2.09,-17.07 8.09,-66.04 10.18,-83.1 0.15,-1.22 -0.72,-2.34 -1.94,-2.49 -0.79,-0.09 -0.96,-0.11 -1.75,-0.21 z" />
    <path
       id="bcN0AT4yr-8"
       d="m 309.83,367.74 c -1.41,0.31 -2.36,1.65 -2.16,3.09 2.64,19.61 10.24,75.9 12.88,95.51 0.19,1.37 1.5,2.29 2.85,2 0.73,-0.16 0.41,-0.09 1.14,-0.24 1.42,-0.31 2.36,-1.65 2.16,-3.09 -2.64,-19.61 -10.24,-75.9 -12.88,-95.51 -0.19,-1.37 -1.5,-2.29 -2.85,-2 -0.73,0.15 -0.41,0.09 -1.14,0.24 z" />
    <path
       id="b5UIeNOFP-6"
       d="m 459.45,184.84 c -0.88,11.44 0.96,24.46 5.54,39.06 -16.87,-5.34 -29.59,-13.14 -38.17,-23.4 -8.58,-10.26 -13.02,-22.99 -13.32,-38.17 16.57,-25.83 29.59,-39.33 39.06,-40.52 9.47,-1.18 15.39,9.96 17.76,33.42 -6.36,8.29 -9.98,18.16 -10.87,29.61 z" />
    <path
       id="d7Y9r2CDU3-1"
       d="m 421.13,193.78 c 6.09,10.11 15.98,18.74 29.67,25.88 2.84,3.25 -1.22,9.66 -12.19,19.23 -8.38,7.31 -21.93,17.17 -40.67,29.59 -8.58,5.69 -17.97,10.05 -27.84,12.95 -7.91,2.32 -17.34,5.09 -25.4,7.46 -9.39,2.76 -19.06,4.52 -28.83,5.26 -25.64,1.93 -44.3,0.79 -55.98,-3.43 -22.14,-7.99 -37.17,-9.74 -63.58,-13.66 -17.6,-2.61 -37.84,-2.61 -60.72,0 l 106.43,-53.16 45.49,-34.72 c 16.79,-15.09 35.74,-25.15 56.87,-30.18 21.12,-5.03 44.41,-5.03 69.86,0 -1.5,13.08 0.8,24.67 6.89,34.78 z" />
    <path
       id="a2QcWbC9JE-65"
       d="m 448.38,117.15 c -10.95,2.66 -24.56,17.68 -40.84,45.04 l -58.02,4.87 c 10.96,-14.51 22.9,-29.63 35.83,-45.33 19.4,-23.56 44.2,-39.86 70.55,-38.55 15.22,0.76 25.38,6.11 30.48,16.04 1.55,3.03 2.37,6.39 2.36,9.8 0,7.01 -1.02,13.29 -3.05,18.83 -2.58,7.07 -6.74,13.19 -12.46,18.36 -5.62,-22.04 -13.9,-31.72 -24.85,-29.06 z" />
    <path
       id="d1nrmP5IDC-885"
       d="m 451.68,137.25 c -1.72,0 -3.11,1.39 -3.11,3.11 0,6.57 0,23.17 0,29.73 0,1.72 1.39,3.11 3.11,3.11 0.62,0 -0.62,0 0,0 1.71,0 3.11,-1.39 3.11,-3.11 0,-6.56 0,-23.16 0,-29.73 0,-1.72 -1.4,-3.11 -3.11,-3.11 -0.62,0 0.62,0 0,0 z" />
    <path
       id="gAHRTEZ1S-2"
       d="m 471.14,159.01 1.64,0.68 1.63,0.67 1.6,0.68 1.58,0.67 1.55,0.66 1.53,0.67 1.51,0.66 1.48,0.65 1.46,0.66 1.43,0.65 1.42,0.65 1.39,0.64 1.36,0.64 1.34,0.64 1.32,0.63 1.3,0.63 1.27,0.63 1.25,0.62 1.22,0.62 1.2,0.62 1.18,0.61 1.15,0.61 1.13,0.61 1.11,0.61 1.08,0.6 1.06,0.59 1.04,0.6 1.01,0.59 0.99,0.59 0.97,0.58 0.94,0.58 0.92,0.58 0.9,0.57 0.87,0.57 0.85,0.57 0.82,0.57 0.8,0.56 0.78,0.55 0.75,0.56 0.74,0.55 0.7,0.55 0.69,0.54 0.66,0.54 0.63,0.54 0.62,0.54 0.59,0.53 0.56,0.52 0.55,0.53 0.52,0.52 0.49,0.52 0.48,0.51 0.44,0.51 0.43,0.51 0.4,0.51 0.38,0.5 0.36,0.5 0.33,0.49 0.31,0.49 0.28,0.49 0.26,0.49 0.24,0.48 0.21,0.48 -67.08,-20.2 6.01,-17.08 1.7,0.68 z" />
    <path
       id="iCRv012mu-8"
       d="m 496.81,176.28 c 1.03,0.28 2.1,0.66 3.2,1.13 1.1,0.47 2.23,1.03 3.39,1.69" />
    <path
       id="brKtBjalz-9"
       d="m 395.19,459.17 0.36,0.11 0.34,0.16 0.31,0.21 0.28,0.25 0.25,0.29 0.21,0.32 0.15,0.35 0.11,0.39 0.05,0.39 v 0.39 l -0.06,0.38 -0.12,0.36 -0.16,0.34 -0.2,0.31 -0.25,0.28 -0.29,0.25 -0.32,0.2 -0.36,0.16 -0.38,0.11 -8.17,1.68 8.5,2.9 0.36,0.15 0.34,0.21 0.29,0.24 0.25,0.28 0.21,0.31 0.17,0.34 0.12,0.36 0.06,0.37 0.02,0.38 -0.05,0.39 -0.1,0.38 -0.15,0.37 -0.2,0.33 -0.25,0.29 -0.28,0.26 -0.31,0.21 -0.34,0.16 -0.35,0.12 -0.38,0.07 -0.38,0.01 -0.38,-0.04 -0.39,-0.1 -17.14,-5.86 -0.53,0.11 -0.39,0.05 -0.39,-0.01 -0.38,-0.06 -0.36,-0.11 -0.34,-0.16 -0.07,-0.05 -0.05,0.07 -0.24,0.28 -0.29,0.25 -0.32,0.2 -0.36,0.16 -0.38,0.11 -19.08,3.92 -0.4,0.05 -0.38,-0.01 -0.38,-0.06 -0.36,-0.11 -0.34,-0.16 -0.31,-0.21 -0.29,-0.25 -0.24,-0.28 -0.21,-0.33 -0.16,-0.35 -0.11,-0.38 -0.05,-0.4 0.01,-0.39 0.06,-0.37 0.11,-0.36 0.17,-0.34 0.2,-0.32 0.25,-0.28 0.29,-0.25 0.32,-0.2 0.35,-0.16 0.39,-0.11 19.08,-3.92 0.39,-0.05 0.39,0.01 0.38,0.06 0.36,0.11 0.34,0.16 0.07,0.05 0.04,-0.07 0.25,-0.28 0.29,-0.24 0.32,-0.21 0.07,-0.03 0.19,-0.18 0.32,-0.21 0.33,-0.16 0.36,-0.12 0.37,-0.07 0.38,-0.01 0.39,0.04 0.27,0.07 17.14,-3.52 0.39,-0.05 0.39,0.01 z" />
    <path
       id="f4SJVp3kr-41"
       d="m 342.51,459.78 0.36,0.11 0.34,0.16 0.31,0.21 0.28,0.25 0.25,0.28 0.2,0.33 0.16,0.35 0.11,0.38 0.05,0.4 v 0.39 l -0.07,0.37 -0.11,0.36 -0.16,0.34 -0.21,0.32 -0.25,0.28 -0.28,0.24 -0.32,0.21 -0.36,0.16 -0.38,0.11 -8.17,1.68 8.5,2.9 0.36,0.15 0.33,0.2 0.3,0.25 0.25,0.28 0.21,0.31 0.17,0.34 0.11,0.35 0.07,0.37 0.01,0.39 -0.04,0.38 -0.1,0.39 -0.15,0.36 -0.21,0.34 -0.24,0.29 -0.28,0.25 -0.31,0.21 -0.34,0.17 -0.36,0.12 -0.37,0.06 -0.38,0.02 -0.39,-0.05 -0.38,-0.1 -17.15,-5.85 -0.52,0.11 -0.4,0.05 -0.39,-0.01 -0.37,-0.06 -0.36,-0.11 -0.34,-0.16 -0.07,-0.05 -0.05,0.06 -0.25,0.29 -0.28,0.24 -0.33,0.21 -0.35,0.16 -0.38,0.11 -19.08,3.92 -0.4,0.05 -0.39,-0.01 -0.37,-0.06 -0.36,-0.11 -0.34,-0.17 -0.32,-0.2 -0.28,-0.25 -0.25,-0.29 -0.2,-0.32 -0.16,-0.35 -0.11,-0.39 -0.05,-0.39 0.01,-0.39 0.06,-0.38 0.11,-0.36 0.16,-0.34 0.21,-0.31 0.25,-0.28 0.28,-0.25 0.33,-0.2 0.35,-0.16 0.38,-0.11 19.08,-3.92 0.4,-0.05 h 0.39 l 0.37,0.07 0.37,0.11 0.33,0.16 0.08,0.05 0.04,-0.07 0.25,-0.28 0.29,-0.25 0.32,-0.2 0.07,-0.03 0.19,-0.18 0.31,-0.21 0.34,-0.16 0.36,-0.12 0.37,-0.07 0.38,-0.01 0.39,0.04 0.27,0.07 17.14,-3.52 0.39,-0.05 0.39,0.01 z" />
    <path
       id="a2uTS3eTkx-7"
       d="m 367.99,199.43 c 4.61,13 11.89,26.82 21.82,41.47 l -235.34,68.62 c 6.59,-24.13 14.32,-44.71 23.2,-61.73 18.03,-34.55 38.07,-54.45 45.72,-59.85 34.61,-24.43 80.48,-35.11 137.6,-32.04 0.05,16.03 2.39,30.54 7,43.53 z" />
    <path
       d="m 342.51,459.78 0.36,0.11 0.34,0.16 0.31,0.21 0.28,0.25 0.25,0.28 0.2,0.33 0.16,0.35 0.11,0.38 0.05,0.4 v 0.39 l -0.07,0.37 -0.11,0.36 -0.16,0.34 -0.21,0.32 -0.25,0.28 -0.28,0.24 -0.32,0.21 -0.36,0.16 -0.38,0.11 -8.17,1.68 8.5,2.9 0.36,0.15 0.33,0.2 0.3,0.25 0.25,0.28 0.21,0.31 0.17,0.34 0.11,0.35 0.07,0.37 0.01,0.39 -0.04,0.38 -0.1,0.39 -0.15,0.36 -0.21,0.34 -0.24,0.29 -0.28,0.25 -0.31,0.21 -0.34,0.17 -0.36,0.12 -0.37,0.06 -0.38,0.02 -0.39,-0.05 -0.38,-0.1 -17.15,-5.85 -0.52,0.11 -0.4,0.05 -0.39,-0.01 -0.37,-0.06 -0.36,-0.11 -0.34,-0.16 -0.07,-0.05 -0.05,0.06 -0.25,0.29 -0.28,0.24 -0.33,0.21 -0.35,0.16 -0.38,0.11 -19.08,3.92 -0.4,0.05 -0.39,-0.01 -0.37,-0.06 -0.36,-0.11 -0.34,-0.17 -0.32,-0.2 -0.28,-0.25 -0.25,-0.29 -0.2,-0.32 -0.16,-0.35 -0.11,-0.39 -0.05,-0.39 0.01,-0.39 0.06,-0.38 0.11,-0.36 0.16,-0.34 0.21,-0.31 0.25,-0.28 0.28,-0.25 0.33,-0.2 0.35,-0.16 0.38,-0.11 19.08,-3.92 0.4,-0.05 h 0.39 l 0.37,0.07 0.37,0.11 0.33,0.16 0.08,0.05 0.04,-0.07 0.25,-0.28 0.29,-0.25 0.32,-0.2 0.07,-0.03 0.19,-0.18 0.31,-0.21 0.34,-0.16 0.36,-0.12 0.37,-0.07 0.38,-0.01 0.39,0.04 0.27,0.07 17.14,-3.52 0.39,-0.05 0.39,0.01 z"
       id="c6df1960pP-4" />
    <path
       d="m 309.83,367.74 c -1.41,0.31 -2.36,1.65 -2.16,3.09 2.64,19.61 10.24,75.9 12.88,95.51 0.19,1.37 1.5,2.29 2.85,2 0.73,-0.16 0.41,-0.09 1.14,-0.24 1.42,-0.31 2.36,-1.65 2.16,-3.09 -2.64,-19.61 -10.24,-75.9 -12.88,-95.51 -0.19,-1.37 -1.5,-2.29 -2.85,-2 -0.73,0.15 -0.41,0.09 -1.14,0.24 z"
       id="a4QPbMcuZw-6" />
    <path
       id="c4beH6J2J6-2"
       d="m 461.5,170.56 -5.53,15.38 c 33.13,7.97 53.85,12.95 62.13,14.94 2.25,0.54 4.13,-1.75 3.16,-3.85 -0.61,-1.34 -2.16,-4.71 -4.63,-10.09 z" />
    <path
       id="cdtOYzTe1-9"
       d="m 360.62,283.23 c -1.22,-0.15 -2.34,0.72 -2.49,1.94 -2.09,17.06 -8.09,66.04 -10.18,83.1 -0.15,1.22 0.72,2.33 1.94,2.48 0.8,0.1 0.96,0.12 1.75,0.22 1.22,0.15 2.33,-0.72 2.48,-1.94 2.09,-17.07 8.09,-66.04 10.18,-83.1 0.15,-1.22 -0.72,-2.33 -1.94,-2.48 -0.79,-0.1 -0.95,-0.12 -1.74,-0.22 z" />
    <path
       id="b11y1alkoU-7"
       d="m 349.85,367.59 c -1.38,0.45 -2.18,1.89 -1.83,3.29 4.67,19.23 18.07,74.43 22.74,93.66 0.33,1.34 1.73,2.12 3.04,1.69 0.71,-0.23 0.4,-0.13 1.11,-0.36 1.37,-0.45 2.17,-1.89 1.83,-3.29 -4.67,-19.23 -18.07,-74.43 -22.74,-93.66 -0.33,-1.34 -1.73,-2.12 -3.05,-1.69 -0.71,0.23 -0.39,0.13 -1.1,0.36 z" />
    <path
       id="bgJmZ51GL-12"
       d="m 320.32,284.42 c -1.22,-0.15 -2.33,0.72 -2.48,1.94 -2.09,17.06 -8.09,66.04 -10.18,83.1 -0.15,1.22 0.72,2.33 1.94,2.48 0.79,0.1 0.95,0.12 1.74,0.22 1.22,0.15 2.34,-0.72 2.49,-1.94 2.09,-17.07 8.09,-66.04 10.18,-83.1 0.15,-1.22 -0.72,-2.34 -1.94,-2.49 -0.79,-0.09 -0.96,-0.11 -1.75,-0.21 z" />
    <path
       id="bcN0AT4yr-6"
       d="m 309.83,367.74 c -1.41,0.31 -2.36,1.65 -2.16,3.09 2.64,19.61 10.24,75.9 12.88,95.51 0.19,1.37 1.5,2.29 2.85,2 0.73,-0.16 0.41,-0.09 1.14,-0.24 1.42,-0.31 2.36,-1.65 2.16,-3.09 -2.64,-19.61 -10.24,-75.9 -12.88,-95.51 -0.19,-1.37 -1.5,-2.29 -2.85,-2 -0.73,0.15 -0.41,0.09 -1.14,0.24 z" />
    <path
       id="b5UIeNOFP-20"
       d="m 459.45,184.84 c -0.88,11.44 0.96,24.46 5.54,39.06 -16.87,-5.34 -29.59,-13.14 -38.17,-23.4 -8.58,-10.26 -13.02,-22.99 -13.32,-38.17 16.57,-25.83 29.59,-39.33 39.06,-40.52 9.47,-1.18 15.39,9.96 17.76,33.42 -6.36,8.29 -9.98,18.16 -10.87,29.61 z" />
    <path
       id="d7Y9r2CDU3-9"
       d="m 421.13,193.78 c 6.09,10.11 15.98,18.74 29.67,25.88 2.84,3.25 -1.22,9.66 -12.19,19.23 -8.38,7.31 -21.93,17.17 -40.67,29.59 -8.58,5.69 -17.97,10.05 -27.84,12.95 -7.91,2.32 -17.34,5.09 -25.4,7.46 -9.39,2.76 -19.06,4.52 -28.83,5.26 -25.64,1.93 -44.3,0.79 -55.98,-3.43 -22.14,-7.99 -37.17,-9.74 -63.58,-13.66 -17.6,-2.61 -37.84,-2.61 -60.72,0 l 106.43,-53.16 45.49,-34.72 c 16.79,-15.09 35.74,-25.15 56.87,-30.18 21.12,-5.03 44.41,-5.03 69.86,0 -1.5,13.08 0.8,24.67 6.89,34.78 z" />
    <path
       id="a2QcWbC9JE-5"
       d="m 448.38,117.15 c -10.95,2.66 -24.56,17.68 -40.84,45.04 l -58.02,4.87 c 10.96,-14.51 22.9,-29.63 35.83,-45.33 19.4,-23.56 44.2,-39.86 70.55,-38.55 15.22,0.76 25.38,6.11 30.48,16.04 1.55,3.03 2.37,6.39 2.36,9.8 0,7.01 -1.02,13.29 -3.05,18.83 -2.58,7.07 -6.74,13.19 -12.46,18.36 -5.62,-22.04 -13.9,-31.72 -24.85,-29.06 z" />
    <path
       id="d1nrmP5IDC-2"
       d="m 451.68,137.25 c -1.72,0 -3.11,1.39 -3.11,3.11 0,6.57 0,23.17 0,29.73 0,1.72 1.39,3.11 3.11,3.11 0.62,0 -0.62,0 0,0 1.71,0 3.11,-1.39 3.11,-3.11 0,-6.56 0,-23.16 0,-29.73 0,-1.72 -1.4,-3.11 -3.11,-3.11 -0.62,0 0.62,0 0,0 z" />
    <path
       id="gAHRTEZ1S-51"
       d="m 471.14,159.01 1.64,0.68 1.63,0.67 1.6,0.68 1.58,0.67 1.55,0.66 1.53,0.67 1.51,0.66 1.48,0.65 1.46,0.66 1.43,0.65 1.42,0.65 1.39,0.64 1.36,0.64 1.34,0.64 1.32,0.63 1.3,0.63 1.27,0.63 1.25,0.62 1.22,0.62 1.2,0.62 1.18,0.61 1.15,0.61 1.13,0.61 1.11,0.61 1.08,0.6 1.06,0.59 1.04,0.6 1.01,0.59 0.99,0.59 0.97,0.58 0.94,0.58 0.92,0.58 0.9,0.57 0.87,0.57 0.85,0.57 0.82,0.57 0.8,0.56 0.78,0.55 0.75,0.56 0.74,0.55 0.7,0.55 0.69,0.54 0.66,0.54 0.63,0.54 0.62,0.54 0.59,0.53 0.56,0.52 0.55,0.53 0.52,0.52 0.49,0.52 0.48,0.51 0.44,0.51 0.43,0.51 0.4,0.51 0.38,0.5 0.36,0.5 0.33,0.49 0.31,0.49 0.28,0.49 0.26,0.49 0.24,0.48 0.21,0.48 -67.08,-20.2 6.01,-17.08 1.7,0.68 z" />
    <path
       id="iCRv012mu-2"
       d="m 496.81,176.28 c 1.03,0.28 2.1,0.66 3.2,1.13 1.1,0.47 2.23,1.03 3.39,1.69" />
    <path
       id="brKtBjalz-7"
       d="m 395.19,459.17 0.36,0.11 0.34,0.16 0.31,0.21 0.28,0.25 0.25,0.29 0.21,0.32 0.15,0.35 0.11,0.39 0.05,0.39 v 0.39 l -0.06,0.38 -0.12,0.36 -0.16,0.34 -0.2,0.31 -0.25,0.28 -0.29,0.25 -0.32,0.2 -0.36,0.16 -0.38,0.11 -8.17,1.68 8.5,2.9 0.36,0.15 0.34,0.21 0.29,0.24 0.25,0.28 0.21,0.31 0.17,0.34 0.12,0.36 0.06,0.37 0.02,0.38 -0.05,0.39 -0.1,0.38 -0.15,0.37 -0.2,0.33 -0.25,0.29 -0.28,0.26 -0.31,0.21 -0.34,0.16 -0.35,0.12 -0.38,0.07 -0.38,0.01 -0.38,-0.04 -0.39,-0.1 -17.14,-5.86 -0.53,0.11 -0.39,0.05 -0.39,-0.01 -0.38,-0.06 -0.36,-0.11 -0.34,-0.16 -0.07,-0.05 -0.05,0.07 -0.24,0.28 -0.29,0.25 -0.32,0.2 -0.36,0.16 -0.38,0.11 -19.08,3.92 -0.4,0.05 -0.38,-0.01 -0.38,-0.06 -0.36,-0.11 -0.34,-0.16 -0.31,-0.21 -0.29,-0.25 -0.24,-0.28 -0.21,-0.33 -0.16,-0.35 -0.11,-0.38 -0.05,-0.4 0.01,-0.39 0.06,-0.37 0.11,-0.36 0.17,-0.34 0.2,-0.32 0.25,-0.28 0.29,-0.25 0.32,-0.2 0.35,-0.16 0.39,-0.11 19.08,-3.92 0.39,-0.05 0.39,0.01 0.38,0.06 0.36,0.11 0.34,0.16 0.07,0.05 0.04,-0.07 0.25,-0.28 0.29,-0.24 0.32,-0.21 0.07,-0.03 0.19,-0.18 0.32,-0.21 0.33,-0.16 0.36,-0.12 0.37,-0.07 0.38,-0.01 0.39,0.04 0.27,0.07 17.14,-3.52 0.39,-0.05 0.39,0.01 z" />
    <path
       id="f4SJVp3kr-1"
       d="m 342.51,459.78 0.36,0.11 0.34,0.16 0.31,0.21 0.28,0.25 0.25,0.28 0.2,0.33 0.16,0.35 0.11,0.38 0.05,0.4 v 0.39 l -0.07,0.37 -0.11,0.36 -0.16,0.34 -0.21,0.32 -0.25,0.28 -0.28,0.24 -0.32,0.21 -0.36,0.16 -0.38,0.11 -8.17,1.68 8.5,2.9 0.36,0.15 0.33,0.2 0.3,0.25 0.25,0.28 0.21,0.31 0.17,0.34 0.11,0.35 0.07,0.37 0.01,0.39 -0.04,0.38 -0.1,0.39 -0.15,0.36 -0.21,0.34 -0.24,0.29 -0.28,0.25 -0.31,0.21 -0.34,0.17 -0.36,0.12 -0.37,0.06 -0.38,0.02 -0.39,-0.05 -0.38,-0.1 -17.15,-5.85 -0.52,0.11 -0.4,0.05 -0.39,-0.01 -0.37,-0.06 -0.36,-0.11 -0.34,-0.16 -0.07,-0.05 -0.05,0.06 -0.25,0.29 -0.28,0.24 -0.33,0.21 -0.35,0.16 -0.38,0.11 -19.08,3.92 -0.4,0.05 -0.39,-0.01 -0.37,-0.06 -0.36,-0.11 -0.34,-0.17 -0.32,-0.2 -0.28,-0.25 -0.25,-0.29 -0.2,-0.32 -0.16,-0.35 -0.11,-0.39 -0.05,-0.39 0.01,-0.39 0.06,-0.38 0.11,-0.36 0.16,-0.34 0.21,-0.31 0.25,-0.28 0.28,-0.25 0.33,-0.2 0.35,-0.16 0.38,-0.11 19.08,-3.92 0.4,-0.05 h 0.39 l 0.37,0.07 0.37,0.11 0.33,0.16 0.08,0.05 0.04,-0.07 0.25,-0.28 0.29,-0.25 0.32,-0.2 0.07,-0.03 0.19,-0.18 0.31,-0.21 0.34,-0.16 0.36,-0.12 0.37,-0.07 0.38,-0.01 0.39,0.04 0.27,0.07 17.14,-3.52 0.39,-0.05 0.39,0.01 z" />
    <path
       id="a2uTS3eTkx-70"
       d="m 367.99,199.43 c 4.61,13 11.89,26.82 21.82,41.47 l -235.34,68.62 c 6.59,-24.13 14.32,-44.71 23.2,-61.73 18.03,-34.55 38.07,-54.45 45.72,-59.85 34.61,-24.43 80.48,-35.11 137.6,-32.04 0.05,16.03 2.39,30.54 7,43.53 z" />
    <path
       d="m 320.32,284.42 c -1.22,-0.15 -2.33,0.72 -2.48,1.94 -2.09,17.06 -8.09,66.04 -10.18,83.1 -0.15,1.22 0.72,2.33 1.94,2.48 0.79,0.1 0.95,0.12 1.74,0.22 1.22,0.15 2.34,-0.72 2.49,-1.94 2.09,-17.07 8.09,-66.04 10.18,-83.1 0.15,-1.22 -0.72,-2.34 -1.94,-2.49 -0.79,-0.09 -0.96,-0.11 -1.75,-0.21 z"
       id="e1qngIxJOE-7" />
    <path
       d="m 437.7,126.97 c 2.23,0 4.04,1.81 4.04,4.04 0,9.65 0,34.55 0,44.2 0,2.23 -1.81,4.04 -4.04,4.04 -0.81,0 0.81,0 0,0 -2.23,0 -4.04,-1.81 -4.04,-4.04 0,-9.65 0,-34.55 0,-44.2 0,-2.23 1.81,-4.04 4.04,-4.04 0.81,0 -0.81,0 0,0 z"
       id="ackDqGEYE" />
  </defs>
  <sodipodi:namedview
     id="base"
     pagecolor="#505050"
     bordercolor="#666666"
     borderopacity="1.0"
     inkscape:pageopacity="0"
     inkscape:pageshadow="2"
     inkscape:zoom="7.7102274"
     inkscape:cx="36.899041"
     inkscape:cy="33.656595"
     inkscape:document-units="px"
     inkscape:current-layer="g1146"
     inkscape:document-rotation="0"
     showgrid="false"
     inkscape:pagecheckerboard="true"
     inkscape:window-width="1920"
     inkscape:window-height="1080"
     inkscape:window-x="1920"
     inkscape:window-y="0"
     inkscape:window-maximized="1"
     inkscape:snap-global="false"
     inkscape:showpageshadow="false"
     inkscape:deskcolor="#464646" />
  <metadata
     id="metadata5">
    <rdf:RDF>
      <cc:Work
         rdf:about="">
        <dc:format>image/svg+xml</dc:format>
        <dc:type
           rdf:resource="http://purl.org/dc/dcmitype/StillImage" />
      </cc:Work>
    </rdf:RDF>
  </metadata>
  <g
     inkscape:label="Plover"
     inkscape:groupmode="layer"
     id="layer1"
     transform="translate(-16.163167,-130.16197)">
    <g
       id="g1146"
       inkscape:label="Leg_R"
       inkscape:highlight-color="#007cff"
       transform="translate(0,0.0014345)">
      <path
         d="m 30.242333,142.01487 c -0.08204,-0.0101 -0.156683,0.0484 -0.166769,0.13046 -0.140544,1.14721 -0.544017,4.4409 -0.684561,5.58811 -0.01009,0.082 0.04842,0.15668 0.130457,0.16677 0.05312,0.007 0.06388,0.008 0.117007,0.0148 0.08204,0.0101 0.157355,-0.0484 0.167442,-0.13045 0.140543,-1.14789 0.544017,-4.4409 0.68456,-5.58811 0.01009,-0.082 -0.04842,-0.15736 -0.130457,-0.16744 -0.05312,-0.006 -0.06456,-0.007 -0.117679,-0.0141 z"
         id="use5-1"
         style="display:inline;fill:#000000;fill-opacity:1;stroke-width:0.0672456"
         inkscape:label="UpperLeg" />
      <path
         d="m 29.53746,147.58094 c -0.09482,0.0208 -0.158699,0.11095 -0.14525,0.20779 0.177528,1.31868 0.688595,5.10394 0.866123,6.42262 0.01278,0.0921 0.100869,0.154 0.19165,0.13449 0.04909,-0.0108 0.02757,-0.006 0.07666,-0.0161 0.09549,-0.0208 0.1587,-0.11096 0.145251,-0.20779 -0.177529,-1.31869 -0.688595,-5.10394 -0.866124,-6.42263 -0.01278,-0.0921 -0.100868,-0.15399 -0.19165,-0.13449 -0.04909,0.0101 -0.02757,0.006 -0.07666,0.0161 z"
         id="use5-3"
         style="fill:#000000;fill-opacity:1;stroke-width:0.0672456"
         inkscape:label="BottomLeg" />
      <path
         d="m 31.744801,153.7734 0.02421,0.007 0.02286,0.0108 0.02085,0.0141 0.01883,0.0168 0.01681,0.0188 0.01345,0.0222 0.01076,0.0235 0.0074,0.0256 0.0034,0.0269 v 0.0262 l -0.0047,0.0249 -0.0074,0.0242 -0.01076,0.0229 -0.01412,0.0215 -0.01681,0.0188 -0.01883,0.0161 -0.02152,0.0141 -0.02421,0.0108 -0.02555,0.007 -0.549396,0.11297 0.571587,0.19502 0.02421,0.0101 0.02219,0.0135 0.02017,0.0168 0.01681,0.0188 0.01412,0.0209 0.01143,0.0229 0.0074,0.0235 0.0047,0.0249 6.73e-4,0.0262 -0.0027,0.0256 -0.0067,0.0262 -0.01009,0.0242 -0.01412,0.0229 -0.01614,0.0195 -0.01883,0.0168 -0.02085,0.0141 -0.02286,0.0114 -0.02421,0.008 -0.02488,0.004 -0.02555,10e-4 -0.02623,-0.003 -0.02555,-0.007 -1.153262,-0.39338 -0.03497,0.007 -0.0269,0.003 -0.02623,-6.8e-4 -0.02488,-0.004 -0.02421,-0.007 -0.02286,-0.0108 -0.0047,-0.003 -0.0034,0.004 -0.01681,0.0195 -0.01883,0.0161 -0.02219,0.0141 -0.02354,0.0108 -0.02555,0.007 -1.283046,0.26361 -0.0269,0.003 -0.02623,-6.7e-4 -0.02488,-0.004 -0.02421,-0.007 -0.02286,-0.0114 -0.02152,-0.0135 -0.01883,-0.0168 -0.01681,-0.0195 -0.01345,-0.0215 -0.01076,-0.0235 -0.0074,-0.0262 -0.0034,-0.0262 6.72e-4,-0.0262 0.004,-0.0256 0.0074,-0.0242 0.01076,-0.0229 0.01412,-0.0208 0.01681,-0.0188 0.01883,-0.0168 0.02219,-0.0135 0.02354,-0.0108 0.02555,-0.007 1.283046,-0.2636 0.0269,-0.003 h 0.02623 l 0.02488,0.005 0.02488,0.007 0.02219,0.0108 0.0054,0.003 0.0027,-0.005 0.01681,-0.0188 0.0195,-0.0168 0.02152,-0.0135 0.0047,-0.002 0.01278,-0.0121 0.02085,-0.0141 0.02286,-0.0108 0.02421,-0.008 0.02488,-0.005 0.02555,-6.8e-4 0.02623,0.003 0.01816,0.005 1.15259,-0.2367 0.02623,-0.003 0.02623,6.8e-4 z"
         id="use5"
         style="display:inline;fill:#000000;fill-opacity:1;stroke-width:0.0672456"
         inkscape:label="Foot" />
    </g>
    <g
       id="g1151"
       inkscape:label="Leg_L"
       inkscape:highlight-color="#ff0000"
       transform="translate(0,0.0014345)">
      <path
         d="m 27.680295,142.03108 c -0.08204,-0.0101 -0.156682,0.0484 -0.166769,0.13046 -0.140543,1.14721 -0.544017,4.4409 -0.68456,5.58811 -0.01009,0.082 0.04842,0.15668 0.130456,0.16677 0.05312,0.007 0.06388,0.008 0.117008,0.0148 0.08204,0.0101 0.157355,-0.0484 0.167441,-0.13045 0.140544,-1.14789 0.544017,-4.4409 0.684561,-5.58811 0.01009,-0.082 -0.04842,-0.15736 -0.130457,-0.16744 -0.05312,-0.006 -0.06456,-0.007 -0.11768,-0.0141 z"
         id="use1602"
         style="fill:#000000;fill-opacity:1;stroke-width:0.0672456"
         inkscape:label="UpperLeg" />
      <path
         d="m 26.978416,147.74267 c -0.09482,0.0208 -0.1587,0.11095 -0.145251,0.20779 0.177529,1.31868 0.688595,5.10394 0.866124,6.42262 0.01278,0.0921 0.100868,0.154 0.19165,0.13449 0.04909,-0.0107 0.02757,-0.006 0.07666,-0.0161 0.09549,-0.0209 0.158699,-0.11096 0.14525,-0.20779 -0.177528,-1.31869 -0.688595,-5.10394 -0.866123,-6.42263 -0.01278,-0.0921 -0.100869,-0.15399 -0.19165,-0.13449 -0.04909,0.0101 -0.02757,0.006 -0.07666,0.0161 z"
         id="use1600"
         style="fill:#000000;fill-opacity:1;stroke-width:0.0672456"
         inkscape:label="BottomLeg" />
      <path
         d="m 29.314959,154.02008 0.02421,0.007 0.02286,0.0108 0.02085,0.0141 0.01883,0.0168 0.01681,0.0188 0.01345,0.0222 0.01076,0.0235 0.0074,0.0255 0.0034,0.0269 v 0.0262 l -0.0047,0.0249 -0.0074,0.0242 -0.01076,0.0229 -0.01412,0.0215 -0.01681,0.0188 -0.01883,0.0161 -0.02152,0.0141 -0.02421,0.0108 -0.02555,0.007 -0.549397,0.11297 0.571588,0.19502 0.02421,0.0101 0.02219,0.0135 0.02017,0.0168 0.01681,0.0188 0.01412,0.0208 0.01143,0.0229 0.0074,0.0235 0.0047,0.0249 6.72e-4,0.0262 -0.0027,0.0256 -0.0067,0.0262 -0.01009,0.0242 -0.01412,0.0229 -0.01614,0.0195 -0.01883,0.0168 -0.02085,0.0141 -0.02286,0.0114 -0.02421,0.008 -0.02488,0.004 -0.02555,0.001 -0.02623,-0.003 -0.02555,-0.007 -1.153262,-0.39338 -0.03497,0.007 -0.0269,0.003 -0.02623,-6.8e-4 -0.02488,-0.004 -0.02421,-0.007 -0.02286,-0.0108 -0.0047,-0.003 -0.0034,0.004 -0.01681,0.0195 -0.01883,0.0161 -0.02219,0.0141 -0.02354,0.0108 -0.02555,0.007 -1.283046,0.26361 -0.0269,0.003 -0.02623,-6.7e-4 -0.02488,-0.004 -0.02421,-0.007 -0.02286,-0.0114 -0.02152,-0.0135 -0.01883,-0.0168 -0.01681,-0.0195 -0.01345,-0.0215 -0.01076,-0.0235 -0.0074,-0.0262 -0.0034,-0.0262 6.73e-4,-0.0262 0.004,-0.0256 0.0074,-0.0242 0.01076,-0.0229 0.01412,-0.0208 0.01681,-0.0188 0.01883,-0.0168 0.02219,-0.0135 0.02354,-0.0108 0.02555,-0.007 1.283046,-0.2636 0.0269,-0.003 h 0.02623 l 0.02488,0.005 0.02488,0.007 0.02219,0.0108 0.0054,0.003 0.0027,-0.005 0.01681,-0.0188 0.0195,-0.0168 0.02152,-0.0135 0.0047,-0.002 0.01278,-0.0121 0.02085,-0.0141 0.02286,-0.0108 0.02421,-0.008 0.02488,-0.005 0.02555,-6.8e-4 0.02623,0.003 0.01816,0.005 1.152589,-0.2367 0.02623,-0.003 0.02623,6.8e-4 z"
         id="use1604"
         style="fill:#000000;fill-opacity:1;stroke-width:0.0672456"
         inkscape:label="Foot" />
    </g>
    <g
       id="g1141"
       inkscape:label="Body"
       inkscape:highlight-color="#ffffff"
       transform="rotate(-12.658236,31.51856,140.1357)">
      <path
         sodipodi:nodetypes="scssccczcccs"
         style="fill:#ffffff;fill-opacity:1;stroke:#000000;stroke-width:0.52916669;stroke-miterlimit:4;stroke-dasharray:none;stroke-opacity:1"
         id="use50"
         d="m 36.860669,139.97288 c -0.06262,0.29453 -0.08204,0.64959 -0.819724,1.29313 -0.563518,0.49157 -1.424625,1.23558 -2.734879,1.9898 -1.758696,1.01235 -3.512045,1.68652 -5.518846,1.72619 -1.728717,0.0342 -2.97898,0.0531 -3.764409,-0.23065 -1.488818,-0.53729 -2.499519,-0.65497 -4.275475,-0.91858 -1.183523,-0.17551 -2.544573,-0.17551 -4.083153,0 0,0 5.481332,-2.52989 7.156949,-3.57477 1.675617,-1.04489 3.059003,-2.33477 3.059003,-2.33477 1.129053,-1.01473 2.403357,-1.69123 3.824257,-2.02947 1.420227,-0.33825 3.72232,-0.41672 4.697777,0 3.526307,1.06513 2.734135,2.78268 2.4585,4.07912 z"
         inkscape:label="Body" />
      <path
         sodipodi:nodetypes="ccsscccccc"
         id="path891"
         d="m 20.472491,143.89451 -1.336535,-0.25235 c 0,0 4.229053,0.73034 6.364899,0.73837 1.792473,0.007 3.595283,-0.19543 5.346142,-0.57948 0.898807,-0.19716 3.687635,-1.4998 3.687635,-1.4998 l -2.042668,1.59326 -3.589019,0.99072 -3.607711,0.22431 -2.430064,-0.67294 c -0.792828,-0.21211 -1.581602,-0.42066 -2.392679,-0.54209 z"
         style="display:inline;fill:#000000;fill-opacity:0.25;stroke:#000000;stroke-width:0;stroke-linecap:butt;stroke-linejoin:miter;stroke-opacity:0;stroke-dasharray:none"
         inkscape:label="Body_Shadow" />
    </g>
    <g
       id="g1155"
       inkscape:label="Wing"
       inkscape:highlight-color="#6b6b6b"
       transform="rotate(-12.658236,32.098781,135.90282)">
      <path
         sodipodi:nodetypes="ccccscc"
         style="fill:#6b6b6b;fill-opacity:1;stroke:#000000;stroke-width:0.52916669;stroke-miterlimit:4;stroke-dasharray:none;stroke-opacity:1"
         d="m 31.627588,137.94796 c 0.310002,0.87419 0.79955,1.80352 1.467299,2.78867 l -15.825578,4.6144 c 0.443149,-1.62264 0.962957,-3.00656 1.560098,-4.15108 0.977425,-2.13698 2.47218,-3.69018 4.311783,-4.65949 2.507102,-1.32102 5.566566,-1.62966 8.015679,-1.5197 0.0034,1.07794 0.160717,2.05368 0.470719,2.9272 z"
         id="use94-5"
         inkscape:label="Wing" />
      <path
         sodipodi:nodetypes="ccccc"
         id="path884-4"
         d="m 17.362538,145.17875 -0.07024,-0.40858 15.501671,-4.35892 0.234713,0.3008 z"
         style="display:inline;fill:#000000;fill-opacity:0.25;stroke:#000000;stroke-width:0;stroke-linecap:butt;stroke-linejoin:miter;stroke-miterlimit:4;stroke-dasharray:none;stroke-opacity:1"
         inkscape:label="Wing_Shadow" />
    </g>
    <g
       id="g1137"
       inkscape:label="Head"
       inkscape:highlight-color="#eeff00"
       transform="translate(-1.0098034,-0.7778514)">
      <g
         id="g2199"
         inkscape:label="BottomBeak">
        <path
           id="use18"
           d="m 37.087444,136.99992 -0.356562,1.03961 c 2.235514,0.50301 3.633633,0.81729 4.192341,0.94288 0.151822,0.0341 0.275957,-0.12177 0.208652,-0.26201 -0.04235,-0.0895 -0.14991,-0.31455 -0.321328,-0.67384 z"
           style="display:inline;fill:#fff600;fill-opacity:1;stroke-width:0.0672456"
           inkscape:label="BottomBreak_Fill" />
        <path
           id="use20"
           d="m 37.087444,136.99992 -0.356562,1.03961 c 2.235514,0.50301 3.633633,0.81729 4.192341,0.94288 0.151822,0.0341 0.275957,-0.12177 0.208652,-0.26201 -0.04235,-0.0895 -0.14991,-0.31455 -0.321328,-0.67384 z"
           style="display:inline;fill-opacity:0;stroke:#000000;stroke-width:0.52916669;stroke-opacity:1;stroke-dasharray:none"
           inkscape:label="BottomBeak_Outline" />
        <path
           style="display:inline;fill:#000000;fill-opacity:0.25;stroke:none;stroke-width:0.0672456px;stroke-linecap:butt;stroke-linejoin:miter;stroke-opacity:1"
           d="m 36.760854,138.05271 0.165959,-0.39903 4.126287,1.02307 -0.07559,0.25228 z"
           id="path884"
           inkscape:label="BottomBeak_Shadow" />
      </g>
      <g
         id="g2204"
         inkscape:label="TopBeak">
        <path
           id="use70-3"
           d="m 38.191062,136.09874 0.10317,0.0601 0.102593,0.0593 0.100504,0.0597 0.09926,0.0589 0.09735,0.0579 0.09593,0.0584 0.09469,0.0576 0.09278,0.0566 0.09135,0.0571 0.08945,0.0562 0.08878,0.0561 0.08687,0.0552 0.08487,0.0549 0.08354,0.0547 0.0823,0.0539 0.08096,0.0537 0.07896,0.0534 0.07772,0.0526 0.07572,0.0523 0.07439,0.0521 0.07315,0.0513 0.07115,0.051 0.06981,0.0508 0.06848,0.0506 0.06657,0.0497 0.06533,0.0489 0.0639,0.0493 0.062,0.0484 0.06066,0.0482 0.05942,0.0474 0.05742,0.0471 0.05609,0.0469 0.05485,0.0461 0.05285,0.0458 0.05151,0.0456 0.04951,0.0454 0.04827,0.0445 0.04703,0.0437 0.04494,0.0441 0.04436,0.0433 0.0417,0.043 0.04112,0.0422 0.03912,0.0419 0.03712,0.0417 0.03646,0.0416 0.03455,0.0406 0.03264,0.0397 0.03188,0.0403 0.02997,0.0393 0.02797,0.0391 0.0274,0.0383 0.02473,0.0379 0.02407,0.0379 0.02207,0.0376 0.02082,0.0368 0.01949,0.0366 0.01758,0.0356 0.01625,0.0354 0.01425,0.0352 0.01292,0.035 0.01167,0.0342 0.0097,0.0339 -4.288427,-1.94992 0.554244,-1.08412 0.107169,0.0606 z"
           style="display:inline;fill:#edff00;fill-opacity:1;stroke-width:0.52916669;stroke-dasharray:none"
           inkscape:label="TopBeak_Fill" />
        <path
           id="use72-7"
           d="m 38.191062,136.09874 0.10317,0.0601 0.102593,0.0593 0.100504,0.0597 0.09926,0.0589 0.09735,0.0579 0.09593,0.0584 0.09469,0.0576 0.09278,0.0566 0.09135,0.0571 0.08945,0.0562 0.08878,0.0561 0.08687,0.0552 0.08487,0.0549 0.08354,0.0547 0.0823,0.0539 0.08096,0.0537 0.07896,0.0534 0.07772,0.0526 0.07572,0.0523 0.07439,0.0521 0.07315,0.0513 0.07115,0.051 0.06981,0.0508 0.06848,0.0506 0.06657,0.0497 0.06533,0.0489 0.0639,0.0493 0.062,0.0484 0.06066,0.0482 0.05942,0.0474 0.05742,0.0471 0.05609,0.0469 0.05485,0.0461 0.05285,0.0458 0.05151,0.0456 0.04951,0.0454 0.04827,0.0445 0.04703,0.0437 0.04494,0.0441 0.04436,0.0433 0.0417,0.043 0.04112,0.0422 0.03912,0.0419 0.03712,0.0417 0.03646,0.0416 0.03455,0.0406 0.03264,0.0397 0.03188,0.0403 0.02997,0.0393 0.02797,0.0391 0.0274,0.0383 0.02473,0.0379 0.02407,0.0379 0.02207,0.0376 0.02082,0.0368 0.01949,0.0366 0.01758,0.0356 0.01625,0.0354 0.01425,0.0352 0.01292,0.035 0.01167,0.0342 0.0097,0.0339 -4.288427,-1.94992 0.554244,-1.08412 0.107169,0.0606 z"
           style="display:inline;fill-opacity:0;stroke:#000000;stroke-width:0.52916669;stroke-opacity:1;stroke-dasharray:none"
           inkscape:label="TopBeak_Outline" />
        <path
           id="use78-9"
           d="m 39.703383,137.5253 c 0.06612,0.0279 0.134004,0.0629 0.203079,0.10411 0.06907,0.0412 0.139337,0.0887 0.210699,0.14313"
           style="fill-opacity:0;stroke:#000000;stroke-width:0.13229167;stroke-opacity:1;stroke-dasharray:none"
           inkscape:label="Nostril" />
      </g>
      <g
         id="g2210"
         inkscape:label="Face">
        <path
           d="m 37.495897,137.65683 c -0.05918,0.76929 0.06456,1.64482 0.372541,2.62661 -1.134433,-0.35909 -1.989797,-0.88361 -2.566765,-1.57355 -0.576967,-0.68994 -0.875537,-1.54597 -0.895711,-2.56676 1.114259,-1.73696 1.989797,-2.64477 2.626613,-2.72479 0.636816,-0.0794 1.03491,0.66976 1.194282,2.24734 -0.427682,0.55747 -0.671111,1.22118 -0.73096,1.99115 z"
           id="use42"
           style="display:inline;fill:#eeff00;fill-opacity:1;stroke-width:0.0672456"
           inkscape:label="Face_Fill" />
        <path
           d="m 37.495897,137.65683 c -0.05918,0.76929 0.06456,1.64482 0.372541,2.62661 -1.134433,-0.35909 -1.989797,-0.88361 -2.566765,-1.57355 -0.576967,-0.68994 -0.875537,-1.54597 -0.895711,-2.56676 1.114259,-1.73696 1.989797,-2.64477 2.626613,-2.72479 0.636816,-0.0794 1.03491,0.66976 1.194282,2.24734 -0.427682,0.55747 -0.671111,1.22118 -0.73096,1.99115 z"
           id="use44"
           style="display:inline;fill-opacity:0;stroke:#000000;stroke-width:0.52916669;stroke-opacity:1;stroke-dasharray:none"
           inkscape:label="Face_Outline" />
        <path
           sodipodi:nodetypes="csccc"
           id="path884-7"
           d="m 35.872837,139.00375 c 0,0 1.054033,0.9185 1.462575,0.71326 0.352077,-0.17688 0.08893,-1.05908 0.08893,-1.05908 l 0.429934,1.61693 z"
           style="fill:#000000;fill-opacity:0.25;stroke:#000000;stroke-width:0;stroke-linecap:butt;stroke-linejoin:miter;stroke-miterlimit:4;stroke-dasharray:none;stroke-opacity:1"
           inkscape:label="Face_Shadow" />
        <path
           style="fill:#141414;fill-opacity:1;stroke:#000000;stroke-width:0.52916669;stroke-opacity:1;stroke-dasharray:none"
           id="use60"
           d="m 36.879222,133.50477 c -0.745781,0.13417 -1.720202,1.08721 -2.923854,2.85773 l -3.914234,0.0917 c 0.794477,-0.92955 1.657208,-1.89606 2.588741,-2.8975 1.397676,-1.5028 3.128395,-2.4964 4.891787,-2.30168 1.018537,0.1127 1.678828,0.51298 1.980913,1.20019 0.09176,0.20966 0.133186,0.43852 0.118695,0.66737 -0.02841,0.47053 -0.122327,0.88794 -0.28104,1.25157 -0.201831,0.46411 -0.505867,0.85804 -0.910765,1.18189 -0.287911,-1.50218 -0.804462,-2.18549 -1.550243,-2.05132 z"
           inkscape:label="Crest" />
      </g>
      <path
         d="m 36.924005,134.1833 c 0.109109,0 0.197667,0.0886 0.197667,0.19766 0,0.47215 0,1.69045 0,2.1626 0,0.1091 -0.08856,0.19766 -0.197667,0.19766 -0.03963,0 0.03963,0 0,0 -0.109108,0 -0.197666,-0.0886 -0.197666,-0.19766 0,-0.47215 0,-1.69045 0,-2.1626 0,-0.1091 0.08856,-0.19766 0.197666,-0.19766 0.03963,0 -0.03963,0 0,0 z"
         id="use1537"
         style="fill:#000000;fill-opacity:1;stroke-width:0.0489274"
         inkscape:label="Eye" />
    </g>
  </g>
</svg>
