[gd_scene load_steps=2 format=3 uid="uid://conenxe2mcxhs"]

[ext_resource type="Theme" uid="uid://2d67e40vt2eu" path="res://ui/themes/DefaultTheme.tres" id="1_6jn4v"]

[node name="PageButton" type="Button"]
custom_minimum_size = Vector2(0, 160)
theme = ExtResource("1_6jn4v")

[node name="PageButtonLabel" type="RichTextLabel" parent="."]
layout_mode = 0
offset_top = -1.0
offset_right = 432.0
offset_bottom = 164.0
grow_horizontal = 2
grow_vertical = 2
mouse_filter = 2
theme = ExtResource("1_6jn4v")
theme_override_font_sizes/normal_font_size = 120
bbcode_enabled = true
text = "[center]VIDEO"
fit_content = true
