[gd_resource type="Theme" format=3 uid="uid://cpsn08myvntxl"]

[resource]
Button/font_sizes/font_size = 96
RichTextLabel/colors/font_shadow_color = Color(0, 0, 0, 1)
RichTextLabel/constants/shadow_offset_x = 3
RichTextLabel/constants/shadow_offset_y = 3
RichTextLabel/font_sizes/normal_font_size = 96
VBoxContainer/constants/separation = 16
