<?xml version="1.0" encoding="UTF-8" standalone="no"?>
<svg
   width="78.599663"
   height="59.709595"
   viewBox="0 0 20.79616 15.798163"
   version="1.1"
   id="svg8"
   xmlns:xlink="http://www.w3.org/1999/xlink"
   xmlns="http://www.w3.org/2000/svg"
   xmlns:svg="http://www.w3.org/2000/svg"
   xmlns:rdf="http://www.w3.org/1999/02/22-rdf-syntax-ns#"
   xmlns:cc="http://creativecommons.org/ns#"
   xmlns:dc="http://purl.org/dc/elements/1.1/">
  <defs
     id="defs2">
    <linearGradient
       y2="425.70001"
       x2="179.50999"
       y1="276.39999"
       x1="416.38"
       gradientUnits="userSpaceOnUse"
       id="gradientaq1O1WgD7-5">
      <stop
         id="stop6-5"
         offset="0"
         style="stop-color:#f0f0f0;stop-opacity:1;" />
      <stop
         id="stop8-1"
         offset="0.44564819"
         style="stop-color:#ffff96;stop-opacity:1;" />
      <stop
         id="stop10-7"
         offset="1"
         style="stop-color:#ffff1e;stop-opacity:1;" />
    </linearGradient>
    <linearGradient
       id="linearGradient904">
      <stop
         style="stop-color:#000000;stop-opacity:0.2"
         offset="0"
         id="stop900" />
      <stop
         style="stop-color:#000000;stop-opacity:0;"
         offset="1"
         id="stop902" />
    </linearGradient>
    <linearGradient
       xlink:href="#linearGradient904"
       id="linearGradient906"
       x1="415.00058"
       y1="392.30664"
       x2="208.2193"
       y2="437.51544"
       gradientUnits="userSpaceOnUse"
       gradientTransform="matrix(0.0624756,0,0,0.06253211,32.421407,58.375634)" />
    <linearGradient
       xlink:href="#gradientaq1O1WgD7-5"
       id="linearGradient2219"
       gradientUnits="userSpaceOnUse"
       x1="416.38"
       y1="276.39999"
       x2="179.50999"
       y2="425.70001"
       gradientTransform="matrix(0.0624756,0,0,0.06253211,32.421407,58.375634)" />
  </defs>
  <metadata
     id="metadata5">
    <rdf:RDF>
      <cc:Work
         rdf:about="">
        <dc:format>image/svg+xml</dc:format>
        <dc:type
           rdf:resource="http://purl.org/dc/dcmitype/StillImage" />
      </cc:Work>
    </rdf:RDF>
  </metadata>
  <g
     id="g11044"
     style="display:inline;stroke-width:0.967821"
     transform="matrix(1.0272839,0.11084241,-0.11084285,1.027288,-32.846087,-78.445109)">
    <path
       style="display:inline;fill:url(#linearGradient2219);stroke:#000000;stroke-width:0.512139;stroke-miterlimit:4;stroke-dasharray:none;stroke-opacity:1"
       d="m 53.343466,71.840595 c -0.255519,0.911564 0.177562,1.740043 1.693647,2.691563 -0.371081,2.12812 -0.337958,5.36493 -1.49458,7.245493 -0.359235,0.530897 -0.949004,0.967997 -1.768059,1.312549 -1.373839,0.577171 -2.814526,0.979878 -4.287701,1.199366 -0.04811,0.0069 -0.16681,0.02439 -0.357985,0.05315 -2.777665,0.42897 -4.457234,0.690498 -5.151338,0.798053 -0.700976,0.10818 -0.637251,1.13871 0.07122,1.159345 1.502538,0.0444 0.795906,0.03963 1.482771,0.05113 3.964077,0.116935 7.926904,-0.278268 11.78977,-1.176229 0.38485,-0.08942 -1.16392,0.270764 0,0 1.236393,-0.287022 2.31722,-1.034906 3.02257,-2.091699 0.518547,-0.777274 -0.219914,0.328919 0,0 1.657478,-2.4844 2.237876,-5.535967 1.606872,-8.456217 -0.433623,-2.064249 -1.181009,-4.190241 -2.73979,-4.167439 -1.55878,0.0228 -3.867399,1.38093 -3.867399,1.38093 z"
       id="use54-0" />
    <path
       id="path900"
       d="m 46.53525,86.189179 c 0,0 6.861992,-1.158211 8.989118,-1.991194 2.656723,-1.040375 3.733186,-2.974501 3.733186,-2.974501 0,0 -1.019365,3.474539 -3.512142,3.908641 -3.722886,0.648318 -6.926042,1.179967 -6.926042,1.179967 z"
       style="display:inline;fill:url(#linearGradient906);fill-opacity:1;stroke:#000000;stroke-width:0;stroke-linecap:butt;stroke-linejoin:miter;stroke-miterlimit:4;stroke-dasharray:none;stroke-opacity:1" />
    <path
       id="path904"
       d="m 59.963569,79.504353 c 0,0 -0.150649,-1.18586 -0.276131,-1.769475 -0.10397,-0.483567 -0.394014,-1.430548 -0.394014,-1.430548"
       style="fill:none;stroke:#000000;stroke-width:0.256069;stroke-linecap:round;stroke-linejoin:miter;stroke-miterlimit:4;stroke-dasharray:none;stroke-opacity:1" />
    <path
       id="path906"
       d="m 59.885792,78.412507 -0.422736,-1.691955 -0.072,-0.475303 c 0,0 0.298867,0.551692 0.40817,0.844706 0.142011,0.380695 0.318062,1.176793 0.318062,1.176793 z"
       style="fill:#000000;fill-opacity:0.2;stroke:#000000;stroke-width:0;stroke-linecap:butt;stroke-linejoin:miter;stroke-miterlimit:4;stroke-dasharray:none;stroke-opacity:1" />
  </g>
</svg>
